<?xml version="1.0" encoding="utf-8"?>
<!DOCTYPE eagle SYSTEM "eagle.dtd">
<eagle version="6.4">
<drawing>
<settings>
<setting alwaysvectorfont="no"/>
<setting verticaltext="up"/>
</settings>
<grid distance="0.1" unitdist="mm" unit="mm" style="lines" multiple="1" display="yes" altdistance="0.025" altunitdist="inch" altunit="inch"/>
<layers>
<layer number="1" name="Top" color="4" fill="1" visible="yes" active="yes"/>
<layer number="16" name="Bottom" color="1" fill="1" visible="yes" active="yes"/>
<layer number="17" name="Pads" color="2" fill="1" visible="yes" active="yes"/>
<layer number="18" name="Vias" color="2" fill="1" visible="yes" active="yes"/>
<layer number="19" name="Unrouted" color="6" fill="1" visible="yes" active="yes"/>
<layer number="20" name="Dimension" color="15" fill="1" visible="yes" active="yes"/>
<layer number="21" name="tPlace" color="7" fill="1" visible="yes" active="yes"/>
<layer number="22" name="bPlace" color="7" fill="1" visible="yes" active="yes"/>
<layer number="23" name="tOrigins" color="15" fill="1" visible="yes" active="yes"/>
<layer number="24" name="bOrigins" color="15" fill="1" visible="yes" active="yes"/>
<layer number="25" name="tNames" color="7" fill="1" visible="yes" active="yes"/>
<layer number="26" name="bNames" color="7" fill="1" visible="yes" active="yes"/>
<layer number="27" name="tValues" color="7" fill="1" visible="yes" active="yes"/>
<layer number="28" name="bValues" color="7" fill="1" visible="yes" active="yes"/>
<layer number="29" name="tStop" color="7" fill="3" visible="yes" active="yes"/>
<layer number="30" name="bStop" color="7" fill="6" visible="yes" active="yes"/>
<layer number="31" name="tCream" color="7" fill="4" visible="yes" active="yes"/>
<layer number="32" name="bCream" color="7" fill="5" visible="yes" active="yes"/>
<layer number="33" name="tFinish" color="6" fill="3" visible="yes" active="yes"/>
<layer number="34" name="bFinish" color="6" fill="6" visible="yes" active="yes"/>
<layer number="35" name="tGlue" color="7" fill="4" visible="yes" active="yes"/>
<layer number="36" name="bGlue" color="7" fill="5" visible="yes" active="yes"/>
<layer number="37" name="tTest" color="7" fill="1" visible="yes" active="yes"/>
<layer number="38" name="bTest" color="7" fill="1" visible="yes" active="yes"/>
<layer number="39" name="tKeepout" color="4" fill="11" visible="yes" active="yes"/>
<layer number="40" name="bKeepout" color="1" fill="11" visible="yes" active="yes"/>
<layer number="41" name="tRestrict" color="4" fill="10" visible="yes" active="yes"/>
<layer number="42" name="bRestrict" color="1" fill="10" visible="yes" active="yes"/>
<layer number="43" name="vRestrict" color="2" fill="10" visible="yes" active="yes"/>
<layer number="44" name="Drills" color="7" fill="1" visible="yes" active="yes"/>
<layer number="45" name="Holes" color="7" fill="1" visible="yes" active="yes"/>
<layer number="46" name="Milling" color="3" fill="1" visible="yes" active="yes"/>
<layer number="47" name="Measures" color="7" fill="1" visible="yes" active="yes"/>
<layer number="48" name="Document" color="7" fill="1" visible="yes" active="yes"/>
<layer number="49" name="Reference" color="7" fill="1" visible="yes" active="yes"/>
<layer number="51" name="tDocu" color="14" fill="1" visible="yes" active="yes"/>
<layer number="52" name="bDocu" color="14" fill="1" visible="yes" active="yes"/>
<layer number="91" name="Nets" color="2" fill="1" visible="yes" active="yes"/>
<layer number="92" name="Busses" color="1" fill="1" visible="yes" active="yes"/>
<layer number="93" name="Pins" color="2" fill="1" visible="yes" active="yes"/>
<layer number="94" name="Symbols" color="4" fill="1" visible="yes" active="yes"/>
<layer number="95" name="Names" color="7" fill="1" visible="yes" active="yes"/>
<layer number="96" name="Values" color="7" fill="1" visible="yes" active="yes"/>
<layer number="97" name="Info" color="7" fill="1" visible="yes" active="yes"/>
<layer number="98" name="Guide" color="6" fill="1" visible="yes" active="yes"/>
</layers>
<library>
<packages>
<package name="SW-PYP2271">
<wire x1="3.5" y1="-3.5" x2="3.5" y2="3.5" width="0.127" layer="21"/>
<wire x1="3.5" y1="3.5" x2="-3.5" y2="3.5" width="0.127" layer="21"/>
<wire x1="-3.5" y1="3.5" x2="-3.5" y2="-3.5" width="0.127" layer="21"/>
<wire x1="-3.5" y1="-3.5" x2="3.5" y2="-3.5" width="0.127" layer="21"/>
<pad name="1" x="-2.5" y="2" drill="1" shape="long"/>
<pad name="2" x="-2.5" y="0" drill="1" shape="long"/>
<pad name="3" x="-2.5" y="-2" drill="1" shape="long"/>
<pad name="4" x="2.5" y="-2" drill="1" shape="long"/>
<pad name="5" x="2.5" y="0" drill="1" shape="long"/>
<pad name="6" x="2.5" y="2" drill="1" shape="long"/>
<text x="-3.81" y="-5.08" size="1.27" layer="27">&gt;VALUE</text>
<text x="-3.81" y="3.81" size="1.27" layer="25">&gt;NAME</text>
<wire x1="-0.5" y1="-1" x2="0.5" y2="-1" width="0.127" layer="21"/>
<wire x1="0.5" y1="-1" x2="0.5" y2="-3" width="0.127" layer="25"/>
<wire x1="0.5" y1="-3" x2="-0.5" y2="-3" width="0.127" layer="25"/>
<wire x1="-0.5" y1="-3" x2="-0.5" y2="-1" width="0.127" layer="21"/>
</package>
<package name="ESP2010">
<pad name="2" x="0" y="0" drill="0.8"/>
<pad name="1" x="-2.54" y="0" drill="0.8"/>
<pad name="3" x="2.54" y="0" drill="0.8"/>
<wire x1="-5" y1="1.2" x2="-4" y2="1.2" width="0.254" layer="21"/>
<wire x1="-4" y1="1.2" x2="-2.75" y2="1.2" width="0.254" layer="21"/>
<wire x1="-2.75" y1="1.2" x2="2.7" y2="1.2" width="0.254" layer="21"/>
<wire x1="2.7" y1="1.2" x2="4" y2="1.2" width="0.254" layer="21"/>
<wire x1="4" y1="1.2" x2="5" y2="1.2" width="0.254" layer="21"/>
<wire x1="5" y1="1.2" x2="5" y2="2.3" width="0.254" layer="21"/>
<wire x1="5" y1="2.3" x2="5" y2="3.3" width="0.254" layer="21"/>
<wire x1="5" y1="3.3" x2="5" y2="5.7" width="0.254" layer="21"/>
<wire x1="5" y1="5.7" x2="3.4" y2="5.7" width="0.254" layer="21"/>
<wire x1="3.4" y1="5.7" x2="-5" y2="5.7" width="0.254" layer="21"/>
<wire x1="-5" y1="5.7" x2="-5" y2="3.3" width="0.254" layer="21"/>
<rectangle x1="-0.3" y1="-0.3" x2="0.3" y2="1.15" layer="51"/>
<rectangle x1="-2.85" y1="-0.3" x2="-2.25" y2="1.15" layer="51"/>
<rectangle x1="2.25" y1="-0.3" x2="2.85" y2="1.15" layer="51"/>
<wire x1="-5" y1="3.3" x2="-5" y2="2.3" width="0.254" layer="21"/>
<wire x1="-5" y1="2.3" x2="-5" y2="1.2" width="0.254" layer="21"/>
<wire x1="-5" y1="5.7" x2="-5" y2="6.2" width="0.127" layer="51"/>
<wire x1="-2" y1="7.2" x2="0.4" y2="7.2" width="0.127" layer="51"/>
<wire x1="3.4" y1="6.2" x2="3.4" y2="5.7" width="0.127" layer="51"/>
<wire x1="-2" y1="7.2" x2="-2" y2="6.7" width="0.127" layer="51"/>
<wire x1="0.4" y1="7.2" x2="0.4" y2="6.7" width="0.127" layer="51"/>
<wire x1="-2" y1="6.7" x2="-5" y2="6.2" width="0.127" layer="51"/>
<wire x1="0.4" y1="6.7" x2="3.4" y2="6.2" width="0.127" layer="51"/>
<wire x1="-5" y1="1.2" x2="-5" y2="0.7" width="0.254" layer="21"/>
<wire x1="-5" y1="0.7" x2="-4" y2="0.7" width="0.254" layer="21"/>
<wire x1="-4" y1="0.7" x2="-4" y2="1.2" width="0.254" layer="21"/>
<wire x1="5" y1="1.2" x2="5" y2="0.7" width="0.254" layer="21"/>
<wire x1="5" y1="0.7" x2="4" y2="0.7" width="0.254" layer="21"/>
<wire x1="4" y1="0.7" x2="4" y2="1.2" width="0.254" layer="21"/>
<wire x1="-1.3" y1="4.9" x2="-1.3" y2="4.4" width="0.127" layer="51"/>
<wire x1="-1.3" y1="4.4" x2="-0.5" y2="4.4" width="0.127" layer="51"/>
<wire x1="-0.5" y1="4.4" x2="1.3" y2="4.4" width="0.127" layer="51"/>
<wire x1="1.3" y1="4.4" x2="1.3" y2="4.9" width="0.127" layer="51"/>
<wire x1="1.3" y1="4.9" x2="-0.5" y2="4.9" width="0.127" layer="51"/>
<wire x1="-0.5" y1="4.9" x2="-1.3" y2="4.9" width="0.127" layer="51"/>
<wire x1="-2.75" y1="1.2" x2="-2.75" y2="3.2" width="0.127" layer="51"/>
<wire x1="-2.75" y1="3.2" x2="2.7" y2="3.2" width="0.127" layer="51"/>
<wire x1="2.7" y1="3.2" x2="2.7" y2="1.2" width="0.127" layer="51"/>
<wire x1="-5" y1="2.3" x2="-4.5" y2="2.3" width="0.127" layer="51"/>
<wire x1="-5" y1="3.3" x2="-4.5" y2="3.3" width="0.127" layer="51"/>
<wire x1="-0.5" y1="4.4" x2="-0.5" y2="4.9" width="0.127" layer="51"/>
<wire x1="5" y1="2.3" x2="4.5" y2="2.3" width="0.127" layer="51"/>
<wire x1="5" y1="3.3" x2="4.5" y2="3.3" width="0.127" layer="51"/>
<wire x1="4.5" y1="3.3" x2="4.5" y2="2.3" width="0.127" layer="51" curve="180"/>
<wire x1="-4.5" y1="3.3" x2="-4" y2="2.8" width="0.127" layer="51" curve="-90"/>
<wire x1="-4.5" y1="2.3" x2="-4" y2="2.8" width="0.127" layer="51" curve="90"/>
<wire x1="-5" y1="5.7" x2="3.4" y2="5.7" width="0.127" layer="51"/>
</package>
</packages>
<symbols>
<symbol name="PHAP4673">
<pin name="1" x="15.24" y="12.7" length="middle" rot="R180"/>
<pin name="2" x="-5.08" y="10.16" length="middle"/>
<pin name="3" x="15.24" y="5.08" length="middle" rot="R180"/>
<pin name="4" x="55.88" y="5.08" length="middle" rot="R180"/>
<pin name="5" x="55.88" y="10.16" length="middle" rot="R180"/>
<pin name="6" x="55.88" y="15.24" length="middle" rot="R180"/>
<wire x1="2.54" y1="17.78" x2="2.54" y2="20.32" width="0.4064" layer="94"/>
<wire x1="2.54" y1="20.32" x2="6.35" y2="20.32" width="0.4064" layer="94"/>
<wire x1="6.35" y1="20.32" x2="10.16" y2="20.32" width="0.4064" layer="94"/>
<wire x1="10.16" y1="20.32" x2="10.16" y2="17.78" width="0.4064" layer="94"/>
<wire x1="6.35" y1="20.32" x2="6.35" y2="16.51" width="0.254" layer="94"/>
<wire x1="6.35" y1="15.24" x2="6.35" y2="13.97" width="0.254" layer="94"/>
<wire x1="6.35" y1="12.7" x2="6.35" y2="11.43" width="0.254" layer="94"/>
<wire x1="6.35" y1="10.16" x2="6.35" y2="8.89" width="0.254" layer="94"/>
<wire x1="6.35" y1="7.62" x2="6.35" y2="6.35" width="0.254" layer="94"/>
<wire x1="6.35" y1="5.08" x2="6.35" y2="3.81" width="0.254" layer="94"/>
<wire x1="6.35" y1="2.54" x2="6.35" y2="1.27" width="0.254" layer="94"/>
<wire x1="6.35" y1="0" x2="6.35" y2="-1.27" width="0.254" layer="94"/>
</symbol>
<symbol name="TSU-">
<wire x1="0" y1="-3.175" x2="0" y2="-2.54" width="0.254" layer="94"/>
<wire x1="0" y1="-2.54" x2="-1.905" y2="3.175" width="0.254" layer="94"/>
<wire x1="1.27" y1="2.54" x2="2.54" y2="2.54" width="0.254" layer="94"/>
<wire x1="2.54" y1="2.54" x2="2.54" y2="3.175" width="0.254" layer="94"/>
<wire x1="-2.54" y1="2.54" x2="-1.27" y2="2.54" width="0.254" layer="94"/>
<wire x1="-2.54" y1="2.54" x2="-2.54" y2="3.175" width="0.254" layer="94"/>
<wire x1="-1.905" y1="0" x2="-2.54" y2="0" width="0.1524" layer="94"/>
<wire x1="-3.175" y1="0" x2="-3.81" y2="0" width="0.1524" layer="94"/>
<wire x1="-6.35" y1="1.905" x2="-5.08" y2="1.905" width="0.254" layer="94"/>
<wire x1="-6.35" y1="1.905" x2="-6.35" y2="0" width="0.254" layer="94"/>
<wire x1="-6.35" y1="-1.905" x2="-5.08" y2="-1.905" width="0.254" layer="94"/>
<wire x1="-6.35" y1="0" x2="-4.445" y2="0" width="0.1524" layer="94"/>
<wire x1="-6.35" y1="0" x2="-6.35" y2="-1.905" width="0.254" layer="94"/>
<wire x1="0.635" y1="0" x2="0" y2="0" width="0.1524" layer="94"/>
<wire x1="1.905" y1="0" x2="1.27" y2="0" width="0.1524" layer="94"/>
<wire x1="-0.635" y1="0" x2="-1.27" y2="0" width="0.1524" layer="94"/>
<text x="-5.715" y="3.175" size="1.778" layer="96" rot="R90">&gt;VALUE</text>
<text x="-8.255" y="-1.905" size="1.778" layer="95" rot="R90">&gt;PART</text>
<pin name="P" x="0" y="-5.08" visible="pad" length="short" direction="pas" rot="R90"/>
<pin name="S" x="2.54" y="5.08" visible="pad" length="short" direction="pas" rot="R270"/>
<pin name="O" x="-2.54" y="5.08" visible="pad" length="short" direction="pas" rot="R270"/>
</symbol>
<symbol name="U-2">
<wire x1="0" y1="-3.175" x2="0" y2="-2.54" width="0.254" layer="94"/>
<wire x1="0" y1="-2.54" x2="-1.905" y2="3.175" width="0.254" layer="94"/>
<wire x1="1.27" y1="2.54" x2="2.54" y2="2.54" width="0.254" layer="94"/>
<wire x1="2.54" y1="2.54" x2="2.54" y2="3.175" width="0.254" layer="94"/>
<wire x1="-2.54" y1="2.54" x2="-1.27" y2="2.54" width="0.254" layer="94"/>
<wire x1="-2.54" y1="2.54" x2="-2.54" y2="3.175" width="0.254" layer="94"/>
<wire x1="-0.889" y1="0" x2="-1.27" y2="0" width="0.1524" layer="94"/>
<wire x1="-1.905" y1="0" x2="-2.54" y2="0" width="0.1524" layer="94"/>
<wire x1="-3.175" y1="0" x2="-3.81" y2="0" width="0.1524" layer="94"/>
<text x="5.08" y="-1.905" size="1.778" layer="95" rot="R90">&gt;PART</text>
<pin name="P" x="0" y="-5.08" visible="pad" length="short" direction="pas" rot="R90"/>
<pin name="S" x="2.54" y="5.08" visible="pad" length="short" direction="pas" rot="R270"/>
<pin name="O" x="-2.54" y="5.08" visible="pad" length="short" direction="pas" rot="R270"/>
</symbol>
<symbol name="SPDT">
<wire x1="0" y1="-3.175" x2="0" y2="-1.905" width="0.254" layer="94"/>
<wire x1="0" y1="-1.905" x2="-1.905" y2="3.175" width="0.254" layer="94"/>
<wire x1="1.27" y1="2.54" x2="2.54" y2="2.54" width="0.254" layer="94"/>
<wire x1="2.54" y1="2.54" x2="2.54" y2="3.175" width="0.254" layer="94"/>
<wire x1="-2.54" y1="2.54" x2="-1.27" y2="2.54" width="0.254" layer="94"/>
<wire x1="-2.54" y1="2.54" x2="-2.54" y2="3.175" width="0.254" layer="94"/>
<text x="5.08" y="-2.54" size="1.778" layer="95" rot="R90">&gt;NAME</text>
<text x="7.62" y="-2.54" size="1.778" layer="96" rot="R90">&gt;VALUE</text>
<pin name="P" x="0" y="-5.08" visible="pad" length="short" direction="pas" rot="R90"/>
<pin name="S" x="2.54" y="5.08" visible="pad" length="short" direction="pas" rot="R270"/>
<pin name="O" x="-2.54" y="5.08" visible="pad" length="short" direction="pas" rot="R270"/>
</symbol>
</symbols>
<devicesets>
<deviceset name="SW-PYP2271" prefix="S">
<description>&lt;b&gt;Push switch&lt;/b&gt;
&lt;br/&gt;Push switch with 2.00mm raster</description>
<gates>
<gate name="1" symbol="TSU-" x="0" y="0" addlevel="must"/>
<gate name="2" symbol="U-2" x="10.16" y="0" addlevel="always"/>
</gates>
<devices>
<device name="" package="SW-PYP2271">
<connects>
<connect gate="1" pin="O" pad="1"/>
<connect gate="1" pin="P" pad="2"/>
<connect gate="1" pin="S" pad="3"/>
<connect gate="2" pin="O" pad="4"/>
<connect gate="2" pin="P" pad="5"/>
<connect gate="2" pin="S" pad="6"/>
</connects>
<technologies>
<technology name=""/>
</technologies>
</device>
</devices>
</deviceset>
<deviceset name="ESP2010" prefix="SW">
<gates>
<gate name="G$1" symbol="SPDT" x="0" y="0"/>
</gates>
<devices>
<device name="" package="ESP2010">
<connects>
<connect gate="G$1" pin="O" pad="1"/>
<connect gate="G$1" pin="P" pad="2"/>
<connect gate="G$1" pin="S" pad="3"/>
</connects>
<technologies>
<technology name=""/>
</technologies>
</device>
</devices>
</deviceset>
</devicesets>
</library>
</drawing>
</eagle>
