<?xml version="1.0" encoding="utf-8"?>
<!DOCTYPE eagle SYSTEM "eagle.dtd">
<eagle version="6.2">
<drawing>
<settings>
<setting alwaysvectorfont="no"/>
<setting verticaltext="up"/>
</settings>
<grid distance="0.05" unitdist="inch" unit="inch" style="lines" multiple="1" display="yes" altdistance="0.025" altunitdist="inch" altunit="inch"/>
<layers>
<layer number="1" name="Top" color="4" fill="1" visible="yes" active="yes"/>
<layer number="16" name="Bottom" color="1" fill="1" visible="yes" active="yes"/>
<layer number="17" name="Pads" color="2" fill="1" visible="yes" active="yes"/>
<layer number="18" name="Vias" color="2" fill="1" visible="yes" active="yes"/>
<layer number="19" name="Unrouted" color="6" fill="1" visible="yes" active="yes"/>
<layer number="20" name="Dimension" color="15" fill="1" visible="yes" active="yes"/>
<layer number="21" name="tPlace" color="7" fill="1" visible="yes" active="yes"/>
<layer number="22" name="bPlace" color="7" fill="1" visible="yes" active="yes"/>
<layer number="23" name="tOrigins" color="15" fill="1" visible="yes" active="yes"/>
<layer number="24" name="bOrigins" color="15" fill="1" visible="yes" active="yes"/>
<layer number="25" name="tNames" color="7" fill="1" visible="yes" active="yes"/>
<layer number="26" name="bNames" color="7" fill="1" visible="yes" active="yes"/>
<layer number="27" name="tValues" color="7" fill="1" visible="yes" active="yes"/>
<layer number="28" name="bValues" color="7" fill="1" visible="yes" active="yes"/>
<layer number="29" name="tStop" color="7" fill="3" visible="no" active="yes"/>
<layer number="30" name="bStop" color="7" fill="6" visible="no" active="yes"/>
<layer number="31" name="tCream" color="7" fill="4" visible="no" active="yes"/>
<layer number="32" name="bCream" color="7" fill="5" visible="no" active="yes"/>
<layer number="33" name="tFinish" color="6" fill="3" visible="no" active="yes"/>
<layer number="34" name="bFinish" color="6" fill="6" visible="no" active="yes"/>
<layer number="35" name="tGlue" color="7" fill="4" visible="no" active="yes"/>
<layer number="36" name="bGlue" color="7" fill="5" visible="no" active="yes"/>
<layer number="37" name="tTest" color="7" fill="1" visible="no" active="yes"/>
<layer number="38" name="bTest" color="7" fill="1" visible="no" active="yes"/>
<layer number="39" name="tKeepout" color="4" fill="11" visible="yes" active="yes"/>
<layer number="40" name="bKeepout" color="1" fill="11" visible="yes" active="yes"/>
<layer number="41" name="tRestrict" color="4" fill="10" visible="yes" active="yes"/>
<layer number="42" name="bRestrict" color="1" fill="10" visible="yes" active="yes"/>
<layer number="43" name="vRestrict" color="2" fill="10" visible="yes" active="yes"/>
<layer number="44" name="Drills" color="7" fill="1" visible="no" active="yes"/>
<layer number="45" name="Holes" color="7" fill="1" visible="yes" active="yes"/>
<layer number="46" name="Milling" color="3" fill="1" visible="no" active="yes"/>
<layer number="47" name="Measures" color="7" fill="1" visible="no" active="yes"/>
<layer number="48" name="Document" color="7" fill="1" visible="yes" active="yes"/>
<layer number="49" name="Reference" color="7" fill="1" visible="yes" active="yes"/>
<layer number="51" name="tDocu" color="7" fill="1" visible="yes" active="yes"/>
<layer number="52" name="bDocu" color="7" fill="1" visible="yes" active="yes"/>
<layer number="91" name="Nets" color="2" fill="1" visible="yes" active="yes"/>
<layer number="92" name="Busses" color="1" fill="1" visible="yes" active="yes"/>
<layer number="93" name="Pins" color="2" fill="1" visible="yes" active="yes"/>
<layer number="94" name="Symbols" color="4" fill="1" visible="yes" active="yes"/>
<layer number="95" name="Names" color="7" fill="1" visible="yes" active="yes"/>
<layer number="96" name="Values" color="7" fill="1" visible="yes" active="yes"/>
<layer number="97" name="Info" color="7" fill="1" visible="yes" active="yes"/>
<layer number="98" name="Guide" color="6" fill="1" visible="yes" active="yes"/>
</layers>
<library>
<packages>
<package name="CBC006001B01">
<description>1x6 character display sold by Artronic</description>
<wire x1="-29" y1="-15" x2="29" y2="-15" width="0.127" layer="21"/>
<wire x1="29" y1="-15" x2="29" y2="15" width="0.127" layer="21"/>
<wire x1="29" y1="15" x2="-29" y2="15" width="0.127" layer="21"/>
<wire x1="-29" y1="15" x2="-29" y2="-15" width="0.127" layer="21"/>
<hole x="-26.5" y="13.5" drill="2.5"/>
<hole x="-26.5" y="-13.5" drill="2.5"/>
<hole x="26.5" y="13.5" drill="2.5"/>
<hole x="26.5" y="-13.5" drill="2.5"/>
<wire x1="-22" y1="-13" x2="22" y2="-13" width="0.127" layer="21"/>
<wire x1="22" y1="-13" x2="22" y2="13" width="0.127" layer="21"/>
<wire x1="22" y1="13" x2="-22" y2="13" width="0.127" layer="21"/>
<wire x1="-22" y1="13" x2="-22" y2="-13" width="0.127" layer="21"/>
<wire x1="-19" y1="8" x2="19" y2="8" width="0.127" layer="21"/>
<wire x1="19" y1="8" x2="19" y2="-8" width="0.127" layer="21"/>
<wire x1="19" y1="-8" x2="-19" y2="-8" width="0.127" layer="21"/>
<wire x1="-19" y1="-8" x2="-19" y2="8" width="0.127" layer="21"/>
<rectangle x1="-16" y1="-5" x2="16" y2="5" layer="51"/>
<pad name="DB1" x="-27.3" y="0" drill="1" diameter="1.778"/>
<pad name="DB0" x="-24.76" y="0" drill="1" diameter="1.778"/>
<pad name="E" x="-27.3" y="-2.54" drill="1" diameter="1.778"/>
<pad name="RW" x="-24.76" y="-2.54" drill="1" diameter="1.778"/>
<pad name="RS" x="-27.3" y="-5.08" drill="1" diameter="1.778"/>
<pad name="VO" x="-24.76" y="-5.08" drill="1" diameter="1.778"/>
<pad name="VDD" x="-27.3" y="-7.62" drill="1" diameter="1.778"/>
<pad name="VSS" x="-24.76" y="-7.62" drill="1" diameter="1.778" shape="square"/>
<pad name="DB3" x="-27.3" y="2.54" drill="1" diameter="1.778"/>
<pad name="DB2" x="-24.76" y="2.54" drill="1" diameter="1.778"/>
<pad name="DB5" x="-27.3" y="5.08" drill="1" diameter="1.778"/>
<pad name="DB4" x="-24.76" y="5.08" drill="1" diameter="1.778"/>
<pad name="DB7" x="-27.3" y="7.62" drill="1" diameter="1.778"/>
<pad name="DB6" x="-24.76" y="7.62" drill="1" diameter="1.778"/>
<pad name="K" x="26.5" y="-9" drill="1" diameter="1.778"/>
<pad name="A" x="26.5" y="9" drill="1" diameter="1.778"/>
<text x="-30" y="0" size="1.27" layer="21" font="vector" rot="R90">&gt;VALUE</text>
<text x="-30" y="-14" size="1.27" layer="21" font="vector" rot="R90">&gt;NAME</text>
</package>
<package name="WH1604A">
<description>4x16 character display by Winstar</description>
<wire x1="-43.49" y1="-30.03" x2="43.51" y2="-30.03" width="0.127" layer="21"/>
<wire x1="-43.49" y1="-30.03" x2="-43.49" y2="29.97" width="0.127" layer="21"/>
<wire x1="-43.49" y1="29.97" x2="43.51" y2="29.97" width="0.127" layer="21"/>
<wire x1="43.51" y1="29.97" x2="43.51" y2="-30.03" width="0.127" layer="21"/>
<pad name="P$1" x="-40.99" y="27.47" drill="2.5" diameter="5"/>
<pad name="P$2" x="-40.99" y="-27.53" drill="2.5" diameter="5"/>
<pad name="P$3" x="41.01" y="27.47" drill="2.5" diameter="5"/>
<pad name="P$4" x="41.01" y="-27.53" drill="2.5" diameter="5"/>
<pad name="VSS" x="-33.49" y="27.47" drill="1" diameter="1.8" shape="square"/>
<pad name="VDD" x="-30.95" y="27.47" drill="1" diameter="1.8"/>
<pad name="VO" x="-28.41" y="27.47" drill="1" diameter="1.8"/>
<pad name="RS" x="-25.87" y="27.47" drill="1" diameter="1.8"/>
<pad name="RW" x="-23.33" y="27.47" drill="1" diameter="1.8"/>
<pad name="E" x="-20.79" y="27.47" drill="1" diameter="1.8"/>
<pad name="DB0" x="-18.25" y="27.47" drill="1" diameter="1.8"/>
<pad name="DB1" x="-15.71" y="27.47" drill="1" diameter="1.8"/>
<pad name="DB2" x="-13.17" y="27.47" drill="1" diameter="1.8"/>
<pad name="DB3" x="-10.63" y="27.47" drill="1" diameter="1.8"/>
<pad name="DB4" x="-8.09" y="27.47" drill="1" diameter="1.8"/>
<pad name="DB5" x="-5.55" y="27.47" drill="1" diameter="1.8"/>
<pad name="DB6" x="-3.01" y="27.47" drill="1" diameter="1.8"/>
<pad name="DB7" x="-0.47" y="27.47" drill="1" diameter="1.8"/>
<pad name="A" x="2.07" y="27.47" drill="1" diameter="1.8"/>
<pad name="K" x="4.61" y="27.47" drill="1" diameter="1.8"/>
<wire x1="-39.5" y1="18.7" x2="-39.5" y2="-18.7" width="0.127" layer="21"/>
<wire x1="-39.5" y1="-18.7" x2="39.5" y2="-18.7" width="0.127" layer="21"/>
<wire x1="39.5" y1="-18.7" x2="39.5" y2="18.7" width="0.127" layer="21"/>
<wire x1="39.5" y1="18.7" x2="-39.5" y2="18.7" width="0.127" layer="21"/>
<wire x1="-31" y1="13" x2="-31" y2="-13" width="0.127" layer="21"/>
<wire x1="-31" y1="-13" x2="31" y2="-13" width="0.127" layer="21"/>
<wire x1="31" y1="-13" x2="31" y2="13" width="0.127" layer="21"/>
<wire x1="31" y1="13" x2="-31" y2="13" width="0.127" layer="21"/>
<rectangle x1="-28.1" y1="-10.4" x2="28.1" y2="10.4" layer="51"/>
<text x="-44.5" y="-30" size="1.27" layer="51" font="vector" rot="R90">&gt;NAME</text>
<text x="-44.5" y="0" size="1.27" layer="51" font="vector" rot="R90">&gt;VALUE</text>
</package>
<package name="WH1602B">
<description>2x16 character display by Winstar</description>
<wire x1="-40" y1="-18" x2="-40" y2="18" width="0.127" layer="21"/>
<wire x1="-40" y1="18" x2="40" y2="18" width="0.127" layer="21"/>
<wire x1="40" y1="18" x2="40" y2="-18" width="0.127" layer="21"/>
<wire x1="40" y1="-18" x2="-40" y2="-18" width="0.127" layer="21"/>
<pad name="P$1" x="-37.5" y="15.5" drill="2.5" diameter="5"/>
<pad name="P$2" x="37.6" y="15.5" drill="2.5" diameter="5"/>
<pad name="P$3" x="-37.5" y="-15.5" drill="2.5" diameter="5"/>
<pad name="P$4" x="37.6" y="-15.5" drill="2.5" diameter="5"/>
<pad name="VSS" x="-32" y="16" drill="1" diameter="1.778" shape="square"/>
<wire x1="-35.6" y1="12.6" x2="-35.6" y2="-12.6" width="0.127" layer="21"/>
<wire x1="-35.6" y1="-12.6" x2="35.6" y2="-12.6" width="0.127" layer="21"/>
<wire x1="35.6" y1="-12.6" x2="35.6" y2="12.6" width="0.127" layer="21"/>
<wire x1="35.6" y1="12.6" x2="-35.6" y2="12.6" width="0.127" layer="21"/>
<wire x1="-33" y1="8" x2="-33" y2="-8" width="0.127" layer="21"/>
<wire x1="-33" y1="-8" x2="33" y2="-8" width="0.127" layer="21"/>
<wire x1="33" y1="-8" x2="33" y2="8" width="0.127" layer="21"/>
<wire x1="33" y1="8" x2="-33" y2="8" width="0.127" layer="21"/>
<rectangle x1="-28.1" y1="-5.75" x2="28.1" y2="5.75" layer="51"/>
<pad name="VDD" x="-29.46" y="16" drill="1" diameter="1.778"/>
<pad name="VO" x="-26.92" y="16" drill="1" diameter="1.778"/>
<pad name="RS" x="-24.38" y="16" drill="1" diameter="1.778"/>
<pad name="RW" x="-21.84" y="16" drill="1" diameter="1.778"/>
<pad name="E" x="-19.3" y="16" drill="1" diameter="1.778"/>
<pad name="DB0" x="-16.76" y="16" drill="1" diameter="1.778"/>
<pad name="DB1" x="-14.22" y="16" drill="1" diameter="1.778"/>
<pad name="DB2" x="-11.68" y="16" drill="1" diameter="1.778"/>
<pad name="DB3" x="-9.14" y="16" drill="1" diameter="1.778"/>
<pad name="DB4" x="-6.6" y="16" drill="1" diameter="1.778"/>
<pad name="DB5" x="-4.06" y="16" drill="1" diameter="1.778"/>
<pad name="DB6" x="-1.52" y="16" drill="1" diameter="1.778"/>
<pad name="DB7" x="1.02" y="16" drill="1" diameter="1.778"/>
<pad name="A" x="3.56" y="16" drill="1" diameter="1.778"/>
<pad name="K" x="6.1" y="16" drill="1" diameter="1.778"/>
</package>
<package name="ABC016001A">
<description>1x16 character display by AV-DISPLAY</description>
<wire x1="-40" y1="-18" x2="40" y2="-18" width="0.127" layer="21"/>
<wire x1="40" y1="-18" x2="40" y2="18" width="0.127" layer="21"/>
<wire x1="40" y1="18" x2="-40" y2="18" width="0.127" layer="21"/>
<wire x1="-40" y1="18" x2="-40" y2="-18" width="0.127" layer="21"/>
<wire x1="-32.5" y1="-7" x2="32.5" y2="-7" width="0.127" layer="21"/>
<wire x1="32.5" y1="-7" x2="32.5" y2="7" width="0.127" layer="21"/>
<wire x1="32.5" y1="7" x2="-32.5" y2="7" width="0.127" layer="21"/>
<wire x1="-32.5" y1="7" x2="-32.5" y2="-7" width="0.127" layer="21"/>
<wire x1="-35.6" y1="12.35" x2="-35.6" y2="-12.35" width="0.127" layer="21"/>
<wire x1="-35.6" y1="-12.35" x2="35.6" y2="-12.35" width="0.127" layer="21"/>
<wire x1="35.6" y1="-12.35" x2="35.6" y2="12.35" width="0.127" layer="21"/>
<wire x1="35.6" y1="12.35" x2="-35.6" y2="12.35" width="0.127" layer="21"/>
<rectangle x1="-29.3" y1="-3.15" x2="29.3" y2="3.15" layer="21"/>
<pad name="P$1" x="-37.5" y="15.5" drill="2.5" diameter="5"/>
<pad name="P$2" x="-37.5" y="-15.5" drill="2.5" diameter="5"/>
<pad name="P$3" x="37.5" y="-15.5" drill="2.5" diameter="5"/>
<pad name="P$4" x="37.5" y="15.5" drill="2.5" diameter="5"/>
<pad name="VSS" x="-32" y="15.5" drill="1" diameter="1.778" shape="square"/>
<pad name="VDD" x="-29.46" y="15.5" drill="1" diameter="1.778"/>
<pad name="VO" x="-26.92" y="15.5" drill="1" diameter="1.778"/>
<pad name="RS" x="-24.38" y="15.5" drill="1" diameter="1.778"/>
<pad name="RW" x="-21.84" y="15.5" drill="1" diameter="1.778"/>
<pad name="E" x="-19.3" y="15.5" drill="1" diameter="1.778"/>
<pad name="DB0" x="-16.76" y="15.5" drill="1" diameter="1.778"/>
<pad name="DB1" x="-14.22" y="15.5" drill="1" diameter="1.778"/>
<pad name="DB2" x="-11.68" y="15.5" drill="1" diameter="1.778"/>
<pad name="DB3" x="-9.14" y="15.5" drill="1" diameter="1.778"/>
<pad name="DB4" x="-6.6" y="15.5" drill="1" diameter="1.778"/>
<pad name="DB5" x="-4.06" y="15.5" drill="1" diameter="1.778"/>
<pad name="DB6" x="-1.52" y="15.5" drill="1" diameter="1.778"/>
<pad name="DB7" x="1.02" y="15.5" drill="1" diameter="1.778"/>
<pad name="A" x="3.56" y="15.5" drill="1" diameter="1.778"/>
<pad name="K" x="6.1" y="15.5" drill="1" diameter="1.778"/>
<text x="-33" y="18.5" size="1.27" layer="21" font="vector">&gt;NAME</text>
<text x="-14" y="18.5" size="1.27" layer="21" font="vector">&gt;VALUE</text>
</package>
<package name="HD44780_HEADER_1X16">
<pad name="1" x="-19.05" y="0" drill="1" shape="square" first="yes"/>
<pad name="2" x="-16.51" y="0" drill="1"/>
<pad name="3" x="-13.97" y="0" drill="1"/>
<pad name="4" x="-11.43" y="0" drill="1"/>
<pad name="5" x="-8.89" y="0" drill="1"/>
<pad name="6" x="-6.35" y="0" drill="1"/>
<pad name="7" x="-3.81" y="0" drill="1"/>
<pad name="8" x="-1.27" y="0" drill="1"/>
<pad name="9" x="1.27" y="0" drill="1"/>
<pad name="10" x="3.81" y="0" drill="1"/>
<pad name="11" x="6.35" y="0" drill="1"/>
<pad name="12" x="8.89" y="0" drill="1"/>
<pad name="13" x="11.43" y="0" drill="1"/>
<pad name="14" x="13.97" y="0" drill="1"/>
<pad name="15" x="16.51" y="0" drill="1"/>
<pad name="16" x="19.05" y="0" drill="1"/>
<wire x1="-20.32" y1="1.27" x2="-17.78" y2="1.27" width="0.127" layer="21"/>
<wire x1="-17.78" y1="1.27" x2="20.32" y2="1.27" width="0.127" layer="21"/>
<wire x1="20.32" y1="1.27" x2="20.32" y2="-1.27" width="0.127" layer="21"/>
<wire x1="20.32" y1="-1.27" x2="-17.78" y2="-1.27" width="0.127" layer="21"/>
<wire x1="-17.78" y1="-1.27" x2="-20.32" y2="-1.27" width="0.127" layer="21"/>
<wire x1="-20.32" y1="-1.27" x2="-20.32" y2="1.27" width="0.127" layer="21"/>
<wire x1="-17.78" y1="1.27" x2="-17.78" y2="-1.27" width="0.127" layer="21"/>
<text x="-20.32" y="2.54" size="1.27" layer="21">&gt;NAME</text>
<text x="-20.32" y="-3.81" size="1.27" layer="21">&gt;VALUE</text>
</package>
<package name="ABG122032G">
<wire x1="-40" y1="-18" x2="40" y2="-18" width="0.127" layer="21"/>
<wire x1="40" y1="-18" x2="40" y2="18" width="0.127" layer="21"/>
<wire x1="40" y1="18" x2="-40" y2="18" width="0.127" layer="21"/>
<wire x1="-40" y1="18" x2="-40" y2="-18" width="0.127" layer="21"/>
<hole x="-36" y="14" drill="2.2"/>
<hole x="36" y="14" drill="2.2"/>
<hole x="-37.5" y="-14" drill="2.2"/>
<hole x="37.5" y="-14" drill="2.2"/>
<wire x1="-34.9" y1="-15.5" x2="30.75" y2="-15.5" width="0.127" layer="51"/>
<wire x1="30.75" y1="-15.5" x2="30.75" y2="11.5" width="0.127" layer="51"/>
<wire x1="30.75" y1="11.5" x2="-34.9" y2="11.5" width="0.127" layer="51"/>
<wire x1="-34.9" y1="11.5" x2="-34.9" y2="-15.5" width="0.127" layer="51"/>
<wire x1="-32.3" y1="-11.25" x2="28.2" y2="-11.25" width="0.127" layer="51"/>
<wire x1="28.2" y1="-11.25" x2="28.2" y2="7.25" width="0.127" layer="51"/>
<wire x1="28.2" y1="7.25" x2="-32.3" y2="7.25" width="0.127" layer="51"/>
<wire x1="-32.3" y1="7.25" x2="-32.3" y2="-11.25" width="0.127" layer="51"/>
<pad name="VSS" x="-29.8" y="16" drill="1" shape="square"/>
<pad name="VDD" x="-27.26" y="16" drill="1"/>
<pad name="V0" x="-24.72" y="16" drill="1"/>
<pad name="A0" x="-22.18" y="16" drill="1"/>
<pad name="E1" x="-19.64" y="16" drill="1"/>
<pad name="E2" x="-17.1" y="16" drill="1"/>
<pad name="RW" x="-14.56" y="16" drill="1"/>
<pad name="DB0" x="-12.02" y="16" drill="1"/>
<pad name="DB1" x="-9.48" y="16" drill="1"/>
<pad name="DB2" x="-6.94" y="16" drill="1"/>
<pad name="DB3" x="-4.4" y="16" drill="1"/>
<pad name="DB4" x="-1.86" y="16" drill="1"/>
<pad name="DB5" x="0.68" y="16" drill="1"/>
<pad name="DB6" x="3.22" y="16" drill="1"/>
<pad name="DB7" x="5.76" y="16" drill="1"/>
<pad name="RST" x="8.3" y="16" drill="1"/>
<pad name="A" x="10.84" y="16" drill="1"/>
<pad name="K" x="13.38" y="16" drill="1"/>
</package>
<package name="NJU6450_HEADER_1X18">
<pad name="9" x="-1.27" y="0" drill="1"/>
<pad name="10" x="1.27" y="0" drill="1"/>
<pad name="8" x="-3.81" y="0" drill="1"/>
<pad name="7" x="-6.35" y="0" drill="1"/>
<pad name="6" x="-8.89" y="0" drill="1"/>
<pad name="5" x="-11.43" y="0" drill="1"/>
<pad name="4" x="-13.97" y="0" drill="1"/>
<pad name="3" x="-16.51" y="0" drill="1"/>
<pad name="2" x="-19.05" y="0" drill="1"/>
<pad name="1" x="-21.59" y="0" drill="1" shape="square"/>
<pad name="11" x="3.81" y="0" drill="1"/>
<pad name="12" x="6.35" y="0" drill="1"/>
<pad name="13" x="8.89" y="0" drill="1"/>
<pad name="14" x="11.43" y="0" drill="1"/>
<pad name="15" x="13.97" y="0" drill="1"/>
<pad name="16" x="16.51" y="0" drill="1"/>
<pad name="17" x="19.05" y="0" drill="1"/>
<pad name="18" x="21.59" y="0" drill="1"/>
<wire x1="-20.32" y1="1.27" x2="22.86" y2="1.27" width="0.127" layer="21"/>
<wire x1="22.86" y1="1.27" x2="22.86" y2="-1.27" width="0.127" layer="21"/>
<wire x1="22.86" y1="-1.27" x2="-20.32" y2="-1.27" width="0.127" layer="21"/>
<wire x1="-20.32" y1="-1.27" x2="-22.86" y2="-1.27" width="0.127" layer="21"/>
<wire x1="-22.86" y1="-1.27" x2="-22.86" y2="1.27" width="0.127" layer="21"/>
<wire x1="-22.86" y1="1.27" x2="-20.32" y2="1.27" width="0.127" layer="21"/>
<wire x1="-20.32" y1="1.27" x2="-20.32" y2="-1.27" width="0.127" layer="21"/>
<text x="-22.86" y="2.54" size="1.27" layer="21">&gt;NAME</text>
<text x="-22.86" y="-3.81" size="1.27" layer="21">&gt;VALUE</text>
</package>
<package name="AGG128064G">
<wire x1="79" y1="-2.5" x2="79" y2="67.5" width="0.127" layer="21"/>
<wire x1="79" y1="67.5" x2="-14" y2="67.5" width="0.127" layer="21"/>
<wire x1="-14" y1="67.5" x2="-14" y2="-2.5" width="0.127" layer="21"/>
<wire x1="-14" y1="-2.5" x2="79" y2="-2.5" width="0.127" layer="21"/>
<wire x1="-11" y1="5" x2="76" y2="5" width="0.127" layer="21"/>
<wire x1="76" y1="5" x2="76" y2="60" width="0.127" layer="21"/>
<wire x1="76" y1="60" x2="-11" y2="60" width="0.127" layer="21"/>
<wire x1="-11" y1="60" x2="-11" y2="5" width="0.127" layer="21"/>
<wire x1="-2.8" y1="13.1" x2="67.8" y2="13.1" width="0.127" layer="21"/>
<wire x1="67.8" y1="13.1" x2="67.8" y2="51.9" width="0.127" layer="21"/>
<wire x1="67.8" y1="51.9" x2="-2.8" y2="51.9" width="0.127" layer="21"/>
<wire x1="-2.8" y1="51.9" x2="-2.8" y2="13.1" width="0.127" layer="21"/>
<hole x="-11.5" y="65" drill="2.5"/>
<hole x="76.5" y="65" drill="2.5"/>
<hole x="-11.5" y="0" drill="2.5"/>
<hole x="76.5" y="0" drill="2.5"/>
<rectangle x1="-0.7" y1="15.9" x2="65.7" y2="49.1" layer="51"/>
<pad name="20" x="0" y="0" drill="1" shape="long" rot="R90"/>
<text x="-13.5" y="71" size="1.27" layer="21" font="vector">&gt;NAME</text>
<text x="-13.5" y="68.5" size="1.27" layer="21" font="vector">&gt;VALUE</text>
<pad name="19" x="2.54" y="0" drill="1" shape="long" rot="R90"/>
<pad name="18" x="5.08" y="0" drill="1" shape="long" rot="R90"/>
<pad name="17" x="7.62" y="0" drill="1" shape="long" rot="R90"/>
<pad name="16" x="10.16" y="0" drill="1" shape="long" rot="R90"/>
<pad name="15" x="12.7" y="0" drill="1" shape="long" rot="R90"/>
<pad name="14" x="15.24" y="0" drill="1" shape="long" rot="R90"/>
<pad name="13" x="17.78" y="0" drill="1" shape="long" rot="R90"/>
<pad name="12" x="20.32" y="0" drill="1" shape="long" rot="R90"/>
<pad name="11" x="22.86" y="0" drill="1" shape="long" rot="R90"/>
<pad name="10" x="25.4" y="0" drill="1" shape="long" rot="R90"/>
<pad name="9" x="27.94" y="0" drill="1" shape="long" rot="R90"/>
<pad name="8" x="30.48" y="0" drill="1" shape="long" rot="R90"/>
<pad name="7" x="33.02" y="0" drill="1" shape="long" rot="R90"/>
<pad name="6" x="35.56" y="0" drill="1" shape="long" rot="R90"/>
<pad name="5" x="38.1" y="0" drill="1" shape="long" rot="R90"/>
<pad name="4" x="40.64" y="0" drill="1" shape="long" rot="R90"/>
<pad name="3" x="43.18" y="0" drill="1" shape="long" rot="R90"/>
<pad name="2" x="45.72" y="0" drill="1" shape="long" rot="R90"/>
<pad name="1" x="48.26" y="0" drill="1" shape="long" rot="R90"/>
<text x="50.165" y="-0.635" size="1.27" layer="21" font="vector">1</text>
<text x="-3.81" y="-0.635" size="1.27" layer="21" font="vector">20</text>
</package>
</packages>
<symbols>
<symbol name="HD44780">
<wire x1="-7.62" y1="20.32" x2="7.62" y2="20.32" width="0.254" layer="94"/>
<wire x1="7.62" y1="20.32" x2="7.62" y2="-22.86" width="0.254" layer="94"/>
<wire x1="7.62" y1="-22.86" x2="-7.62" y2="-22.86" width="0.254" layer="94"/>
<wire x1="-7.62" y1="-22.86" x2="-7.62" y2="20.32" width="0.254" layer="94"/>
<pin name="VSS" x="-10.16" y="17.78" length="short" direction="pwr"/>
<pin name="VDD" x="-10.16" y="15.24" length="short" direction="pwr"/>
<pin name="V0" x="-10.16" y="12.7" length="short" direction="pwr"/>
<pin name="RS" x="-10.16" y="10.16" length="short" direction="in"/>
<pin name="RW" x="-10.16" y="7.62" length="short" direction="in"/>
<pin name="E" x="-10.16" y="5.08" length="short" direction="in"/>
<pin name="DB0" x="-10.16" y="2.54" length="short"/>
<pin name="DB1" x="-10.16" y="0" length="short"/>
<pin name="DB2" x="-10.16" y="-2.54" length="short"/>
<pin name="DB3" x="-10.16" y="-5.08" length="short"/>
<pin name="DB4" x="-10.16" y="-7.62" length="short"/>
<pin name="DB5" x="-10.16" y="-10.16" length="short"/>
<pin name="DB6" x="-10.16" y="-12.7" length="short"/>
<pin name="DB7" x="-10.16" y="-15.24" length="short"/>
<pin name="LED_A" x="-10.16" y="-17.78" length="short" direction="pwr"/>
<pin name="LED_K" x="-10.16" y="-20.32" length="short" direction="pwr"/>
<text x="-7.62" y="25.4" size="1.778" layer="94">&gt;NAME</text>
<text x="-7.62" y="22.86" size="1.778" layer="94">&gt;VALUE</text>
</symbol>
<symbol name="NJU6450">
<pin name="DB1" x="-10.16" y="0" length="short"/>
<pin name="DB0" x="-10.16" y="2.54" length="short"/>
<pin name="RW" x="-10.16" y="5.08" length="short" direction="in"/>
<pin name="E2" x="-10.16" y="7.62" length="short" direction="in"/>
<pin name="E1" x="-10.16" y="10.16" length="short" direction="in"/>
<pin name="A0" x="-10.16" y="12.7" length="short" direction="in"/>
<pin name="V0" x="-10.16" y="15.24" length="short" direction="pwr"/>
<pin name="VDD" x="-10.16" y="17.78" length="short" direction="pwr"/>
<pin name="VSS" x="-10.16" y="20.32" length="short" direction="pwr"/>
<pin name="DB2" x="-10.16" y="-2.54" length="short"/>
<pin name="DB3" x="-10.16" y="-5.08" length="short"/>
<pin name="DB4" x="-10.16" y="-7.62" length="short"/>
<pin name="DB5" x="-10.16" y="-10.16" length="short"/>
<pin name="DB6" x="-10.16" y="-12.7" length="short"/>
<pin name="DB7" x="-10.16" y="-15.24" length="short"/>
<pin name="!RST" x="-10.16" y="-17.78" length="short" direction="in"/>
<pin name="LED_A" x="-10.16" y="-20.32" length="short" direction="pwr"/>
<pin name="LED_K" x="-10.16" y="-22.86" length="short" direction="pwr"/>
<wire x1="-7.62" y1="22.86" x2="-7.62" y2="-25.4" width="0.254" layer="94"/>
<wire x1="-7.62" y1="-25.4" x2="7.62" y2="-25.4" width="0.254" layer="94"/>
<wire x1="7.62" y1="-25.4" x2="7.62" y2="22.86" width="0.254" layer="94"/>
<wire x1="7.62" y1="22.86" x2="-7.62" y2="22.86" width="0.254" layer="94"/>
<text x="-7.62" y="27.94" size="1.778" layer="94">&gt;NAME</text>
<text x="-7.62" y="25.4" size="1.778" layer="94">&gt;VALUE</text>
</symbol>
</symbols>
<devicesets>
<deviceset name="LCD_HD44780" prefix="LCD">
<description>HD44780 based LCD character display with LED backlight</description>
<gates>
<gate name="G$1" symbol="HD44780" x="0" y="0"/>
</gates>
<devices>
<device name="_CBC006001B01" package="CBC006001B01">
<connects>
<connect gate="G$1" pin="DB0" pad="DB0"/>
<connect gate="G$1" pin="DB1" pad="DB1"/>
<connect gate="G$1" pin="DB2" pad="DB2"/>
<connect gate="G$1" pin="DB3" pad="DB3"/>
<connect gate="G$1" pin="DB4" pad="DB4"/>
<connect gate="G$1" pin="DB5" pad="DB5"/>
<connect gate="G$1" pin="DB6" pad="DB6"/>
<connect gate="G$1" pin="DB7" pad="DB7"/>
<connect gate="G$1" pin="E" pad="E"/>
<connect gate="G$1" pin="LED_A" pad="A"/>
<connect gate="G$1" pin="LED_K" pad="K"/>
<connect gate="G$1" pin="RS" pad="RS"/>
<connect gate="G$1" pin="RW" pad="RW"/>
<connect gate="G$1" pin="V0" pad="VO"/>
<connect gate="G$1" pin="VDD" pad="VDD"/>
<connect gate="G$1" pin="VSS" pad="VSS"/>
</connects>
<technologies>
<technology name=""/>
</technologies>
</device>
<device name="_WH1604" package="WH1604A">
<connects>
<connect gate="G$1" pin="DB0" pad="DB0"/>
<connect gate="G$1" pin="DB1" pad="DB1"/>
<connect gate="G$1" pin="DB2" pad="DB2"/>
<connect gate="G$1" pin="DB3" pad="DB3"/>
<connect gate="G$1" pin="DB4" pad="DB4"/>
<connect gate="G$1" pin="DB5" pad="DB5"/>
<connect gate="G$1" pin="DB6" pad="DB6"/>
<connect gate="G$1" pin="DB7" pad="DB7"/>
<connect gate="G$1" pin="E" pad="E"/>
<connect gate="G$1" pin="LED_A" pad="A"/>
<connect gate="G$1" pin="LED_K" pad="K"/>
<connect gate="G$1" pin="RS" pad="RS"/>
<connect gate="G$1" pin="RW" pad="RW"/>
<connect gate="G$1" pin="V0" pad="VO"/>
<connect gate="G$1" pin="VDD" pad="VDD"/>
<connect gate="G$1" pin="VSS" pad="VSS"/>
</connects>
<technologies>
<technology name=""/>
</technologies>
</device>
<device name="_WH1602B" package="WH1602B">
<connects>
<connect gate="G$1" pin="DB0" pad="DB0"/>
<connect gate="G$1" pin="DB1" pad="DB1"/>
<connect gate="G$1" pin="DB2" pad="DB2"/>
<connect gate="G$1" pin="DB3" pad="DB3"/>
<connect gate="G$1" pin="DB4" pad="DB4"/>
<connect gate="G$1" pin="DB5" pad="DB5"/>
<connect gate="G$1" pin="DB6" pad="DB6"/>
<connect gate="G$1" pin="DB7" pad="DB7"/>
<connect gate="G$1" pin="E" pad="E"/>
<connect gate="G$1" pin="LED_A" pad="A"/>
<connect gate="G$1" pin="LED_K" pad="K"/>
<connect gate="G$1" pin="RS" pad="RS"/>
<connect gate="G$1" pin="RW" pad="RW"/>
<connect gate="G$1" pin="V0" pad="VO"/>
<connect gate="G$1" pin="VDD" pad="VDD"/>
<connect gate="G$1" pin="VSS" pad="VSS"/>
</connects>
<technologies>
<technology name=""/>
</technologies>
</device>
<device name="_ABC016001A" package="ABC016001A">
<connects>
<connect gate="G$1" pin="DB0" pad="DB0"/>
<connect gate="G$1" pin="DB1" pad="DB1"/>
<connect gate="G$1" pin="DB2" pad="DB2"/>
<connect gate="G$1" pin="DB3" pad="DB3"/>
<connect gate="G$1" pin="DB4" pad="DB4"/>
<connect gate="G$1" pin="DB5" pad="DB5"/>
<connect gate="G$1" pin="DB6" pad="DB6"/>
<connect gate="G$1" pin="DB7" pad="DB7"/>
<connect gate="G$1" pin="E" pad="E"/>
<connect gate="G$1" pin="LED_A" pad="A"/>
<connect gate="G$1" pin="LED_K" pad="K"/>
<connect gate="G$1" pin="RS" pad="RS"/>
<connect gate="G$1" pin="RW" pad="RW"/>
<connect gate="G$1" pin="V0" pad="VO"/>
<connect gate="G$1" pin="VDD" pad="VDD"/>
<connect gate="G$1" pin="VSS" pad="VSS"/>
</connects>
<technologies>
<technology name=""/>
</technologies>
</device>
<device name="_HEADER_1X16" package="HD44780_HEADER_1X16">
<connects>
<connect gate="G$1" pin="DB0" pad="7"/>
<connect gate="G$1" pin="DB1" pad="8"/>
<connect gate="G$1" pin="DB2" pad="9"/>
<connect gate="G$1" pin="DB3" pad="10"/>
<connect gate="G$1" pin="DB4" pad="11"/>
<connect gate="G$1" pin="DB5" pad="12"/>
<connect gate="G$1" pin="DB6" pad="13"/>
<connect gate="G$1" pin="DB7" pad="14"/>
<connect gate="G$1" pin="E" pad="6"/>
<connect gate="G$1" pin="LED_A" pad="15"/>
<connect gate="G$1" pin="LED_K" pad="16"/>
<connect gate="G$1" pin="RS" pad="4"/>
<connect gate="G$1" pin="RW" pad="5"/>
<connect gate="G$1" pin="V0" pad="3"/>
<connect gate="G$1" pin="VDD" pad="2"/>
<connect gate="G$1" pin="VSS" pad="1"/>
</connects>
<technologies>
<technology name=""/>
</technologies>
</device>
</devices>
</deviceset>
<deviceset name="LCD_NJU6450" prefix="LCD">
<description>NJU6450 based graphic LCD display with LED backlight</description>
<gates>
<gate name="G$1" symbol="NJU6450" x="0" y="0"/>
</gates>
<devices>
<device name="_HEADER_1X18" package="NJU6450_HEADER_1X18">
<connects>
<connect gate="G$1" pin="!RST" pad="16"/>
<connect gate="G$1" pin="A0" pad="4"/>
<connect gate="G$1" pin="DB0" pad="8"/>
<connect gate="G$1" pin="DB1" pad="9"/>
<connect gate="G$1" pin="DB2" pad="10"/>
<connect gate="G$1" pin="DB3" pad="11"/>
<connect gate="G$1" pin="DB4" pad="12"/>
<connect gate="G$1" pin="DB5" pad="13"/>
<connect gate="G$1" pin="DB6" pad="14"/>
<connect gate="G$1" pin="DB7" pad="15"/>
<connect gate="G$1" pin="E1" pad="5"/>
<connect gate="G$1" pin="E2" pad="6"/>
<connect gate="G$1" pin="LED_A" pad="17"/>
<connect gate="G$1" pin="LED_K" pad="18"/>
<connect gate="G$1" pin="RW" pad="7"/>
<connect gate="G$1" pin="V0" pad="3"/>
<connect gate="G$1" pin="VDD" pad="2"/>
<connect gate="G$1" pin="VSS" pad="1"/>
</connects>
<technologies>
<technology name=""/>
</technologies>
</device>
<device name="_ABG122032G" package="ABG122032G">
<connects>
<connect gate="G$1" pin="!RST" pad="RST"/>
<connect gate="G$1" pin="A0" pad="A0"/>
<connect gate="G$1" pin="DB0" pad="DB0"/>
<connect gate="G$1" pin="DB1" pad="DB1"/>
<connect gate="G$1" pin="DB2" pad="DB2"/>
<connect gate="G$1" pin="DB3" pad="DB3"/>
<connect gate="G$1" pin="DB4" pad="DB4"/>
<connect gate="G$1" pin="DB5" pad="DB5"/>
<connect gate="G$1" pin="DB6" pad="DB6"/>
<connect gate="G$1" pin="DB7" pad="DB7"/>
<connect gate="G$1" pin="E1" pad="E1"/>
<connect gate="G$1" pin="E2" pad="E2"/>
<connect gate="G$1" pin="LED_A" pad="A"/>
<connect gate="G$1" pin="LED_K" pad="K"/>
<connect gate="G$1" pin="RW" pad="RW"/>
<connect gate="G$1" pin="V0" pad="V0"/>
<connect gate="G$1" pin="VDD" pad="VDD"/>
<connect gate="G$1" pin="VSS" pad="VSS"/>
</connects>
<technologies>
<technology name=""/>
</technologies>
</device>
</devices>
</deviceset>
</devicesets>
</library>
</drawing>
</eagle>
