<?xml version="1.0" encoding="utf-8"?>
<!DOCTYPE eagle SYSTEM "eagle.dtd">
<eagle version="7.3.0">
<drawing>
<settings>
<setting alwaysvectorfont="no"/>
<setting verticaltext="up"/>
</settings>
<grid distance="0.1" unitdist="inch" unit="inch" style="lines" multiple="1" display="no" altdistance="0.01" altunitdist="inch" altunit="inch"/>
<layers>
<layer number="1" name="Top" color="4" fill="1" visible="yes" active="yes"/>
<layer number="16" name="Bottom" color="1" fill="1" visible="yes" active="yes"/>
<layer number="17" name="Pads" color="2" fill="1" visible="yes" active="yes"/>
<layer number="18" name="Vias" color="2" fill="1" visible="yes" active="yes"/>
<layer number="19" name="Unrouted" color="6" fill="1" visible="yes" active="yes"/>
<layer number="20" name="Dimension" color="15" fill="1" visible="yes" active="yes"/>
<layer number="21" name="tPlace" color="7" fill="1" visible="yes" active="yes"/>
<layer number="22" name="bPlace" color="7" fill="1" visible="yes" active="yes"/>
<layer number="23" name="tOrigins" color="15" fill="1" visible="yes" active="yes"/>
<layer number="24" name="bOrigins" color="15" fill="1" visible="yes" active="yes"/>
<layer number="25" name="tNames" color="7" fill="1" visible="yes" active="yes"/>
<layer number="26" name="bNames" color="7" fill="1" visible="yes" active="yes"/>
<layer number="27" name="tValues" color="7" fill="1" visible="yes" active="yes"/>
<layer number="28" name="bValues" color="7" fill="1" visible="yes" active="yes"/>
<layer number="29" name="tStop" color="7" fill="3" visible="no" active="yes"/>
<layer number="30" name="bStop" color="7" fill="6" visible="no" active="yes"/>
<layer number="31" name="tCream" color="7" fill="4" visible="no" active="yes"/>
<layer number="32" name="bCream" color="7" fill="5" visible="no" active="yes"/>
<layer number="33" name="tFinish" color="6" fill="3" visible="no" active="yes"/>
<layer number="34" name="bFinish" color="6" fill="6" visible="no" active="yes"/>
<layer number="35" name="tGlue" color="7" fill="4" visible="no" active="yes"/>
<layer number="36" name="bGlue" color="7" fill="5" visible="no" active="yes"/>
<layer number="37" name="tTest" color="7" fill="1" visible="no" active="yes"/>
<layer number="38" name="bTest" color="7" fill="1" visible="no" active="yes"/>
<layer number="39" name="tKeepout" color="4" fill="11" visible="yes" active="yes"/>
<layer number="40" name="bKeepout" color="1" fill="11" visible="yes" active="yes"/>
<layer number="41" name="tRestrict" color="4" fill="10" visible="yes" active="yes"/>
<layer number="42" name="bRestrict" color="1" fill="10" visible="yes" active="yes"/>
<layer number="43" name="vRestrict" color="2" fill="10" visible="yes" active="yes"/>
<layer number="44" name="Drills" color="7" fill="1" visible="no" active="yes"/>
<layer number="45" name="Holes" color="7" fill="1" visible="no" active="yes"/>
<layer number="46" name="Milling" color="3" fill="1" visible="no" active="yes"/>
<layer number="47" name="Measures" color="7" fill="1" visible="no" active="yes"/>
<layer number="48" name="Document" color="7" fill="1" visible="yes" active="yes"/>
<layer number="49" name="Reference" color="7" fill="1" visible="yes" active="yes"/>
<layer number="50" name="dxf" color="7" fill="1" visible="no" active="no"/>
<layer number="51" name="tDocu" color="7" fill="1" visible="yes" active="yes"/>
<layer number="52" name="bDocu" color="7" fill="1" visible="yes" active="yes"/>
<layer number="53" name="tGND_GNDA" color="7" fill="9" visible="no" active="no"/>
<layer number="54" name="bGND_GNDA" color="1" fill="9" visible="no" active="no"/>
<layer number="56" name="wert" color="7" fill="1" visible="no" active="no"/>
<layer number="90" name="Modules" color="5" fill="1" visible="yes" active="yes"/>
<layer number="91" name="Nets" color="2" fill="1" visible="yes" active="yes"/>
<layer number="92" name="Busses" color="1" fill="1" visible="yes" active="yes"/>
<layer number="93" name="Pins" color="2" fill="1" visible="no" active="yes"/>
<layer number="94" name="Symbols" color="4" fill="1" visible="yes" active="yes"/>
<layer number="95" name="Names" color="7" fill="1" visible="yes" active="yes"/>
<layer number="96" name="Values" color="7" fill="1" visible="yes" active="yes"/>
<layer number="97" name="Info" color="7" fill="1" visible="yes" active="yes"/>
<layer number="98" name="Guide" color="6" fill="1" visible="yes" active="yes"/>
<layer number="100" name="Muster" color="7" fill="1" visible="no" active="no"/>
<layer number="101" name="Patch_Top" color="12" fill="4" visible="yes" active="yes"/>
<layer number="102" name="Vscore" color="7" fill="1" visible="yes" active="yes"/>
<layer number="103" name="fp3" color="7" fill="1" visible="yes" active="yes"/>
<layer number="104" name="Name" color="7" fill="1" visible="yes" active="yes"/>
<layer number="105" name="Beschreib" color="9" fill="1" visible="yes" active="yes"/>
<layer number="106" name="BGA-Top" color="4" fill="1" visible="yes" active="yes"/>
<layer number="107" name="BD-Top" color="5" fill="1" visible="yes" active="yes"/>
<layer number="108" name="fp8" color="7" fill="1" visible="yes" active="yes"/>
<layer number="109" name="fp9" color="7" fill="1" visible="yes" active="yes"/>
<layer number="110" name="fp0" color="7" fill="1" visible="yes" active="yes"/>
<layer number="111" name="LPC17xx" color="7" fill="1" visible="yes" active="yes"/>
<layer number="112" name="tSilk" color="7" fill="1" visible="yes" active="yes"/>
<layer number="116" name="Patch_BOT" color="9" fill="4" visible="yes" active="yes"/>
<layer number="121" name="_tsilk" color="7" fill="1" visible="yes" active="yes"/>
<layer number="122" name="_bsilk" color="7" fill="1" visible="yes" active="yes"/>
<layer number="123" name="tTestmark" color="7" fill="1" visible="yes" active="yes"/>
<layer number="124" name="bTestmark" color="7" fill="1" visible="yes" active="yes"/>
<layer number="125" name="_tNames" color="7" fill="1" visible="yes" active="yes"/>
<layer number="126" name="_bNames" color="7" fill="1" visible="yes" active="yes"/>
<layer number="127" name="_tValues" color="7" fill="1" visible="yes" active="yes"/>
<layer number="128" name="_bValues" color="7" fill="1" visible="yes" active="yes"/>
<layer number="131" name="tAdjust" color="7" fill="1" visible="yes" active="yes"/>
<layer number="132" name="bAdjust" color="7" fill="1" visible="yes" active="yes"/>
<layer number="144" name="Drill_legend" color="7" fill="1" visible="yes" active="yes"/>
<layer number="151" name="HeatSink" color="7" fill="1" visible="yes" active="yes"/>
<layer number="152" name="_bDocu" color="7" fill="1" visible="yes" active="yes"/>
<layer number="199" name="Contour" color="7" fill="1" visible="yes" active="yes"/>
<layer number="200" name="200bmp" color="1" fill="10" visible="yes" active="yes"/>
<layer number="201" name="201bmp" color="2" fill="1" visible="no" active="no"/>
<layer number="202" name="202bmp" color="3" fill="1" visible="no" active="no"/>
<layer number="203" name="203bmp" color="4" fill="10" visible="yes" active="yes"/>
<layer number="204" name="204bmp" color="5" fill="10" visible="yes" active="yes"/>
<layer number="205" name="205bmp" color="6" fill="10" visible="yes" active="yes"/>
<layer number="206" name="206bmp" color="7" fill="10" visible="yes" active="yes"/>
<layer number="207" name="207bmp" color="8" fill="10" visible="yes" active="yes"/>
<layer number="208" name="208bmp" color="9" fill="10" visible="yes" active="yes"/>
<layer number="209" name="209bmp" color="7" fill="1" visible="yes" active="yes"/>
<layer number="210" name="210bmp" color="7" fill="1" visible="yes" active="yes"/>
<layer number="211" name="211bmp" color="7" fill="1" visible="yes" active="yes"/>
<layer number="212" name="212bmp" color="7" fill="1" visible="yes" active="yes"/>
<layer number="213" name="213bmp" color="7" fill="1" visible="yes" active="yes"/>
<layer number="214" name="214bmp" color="7" fill="1" visible="yes" active="yes"/>
<layer number="215" name="215bmp" color="7" fill="1" visible="yes" active="yes"/>
<layer number="216" name="216bmp" color="7" fill="1" visible="yes" active="yes"/>
<layer number="217" name="217bmp" color="18" fill="1" visible="no" active="no"/>
<layer number="218" name="218bmp" color="19" fill="1" visible="no" active="no"/>
<layer number="219" name="219bmp" color="20" fill="1" visible="no" active="no"/>
<layer number="220" name="220bmp" color="21" fill="1" visible="no" active="no"/>
<layer number="221" name="221bmp" color="22" fill="1" visible="no" active="no"/>
<layer number="222" name="222bmp" color="23" fill="1" visible="no" active="no"/>
<layer number="223" name="223bmp" color="24" fill="1" visible="no" active="no"/>
<layer number="224" name="224bmp" color="25" fill="1" visible="no" active="no"/>
<layer number="248" name="Housing" color="7" fill="1" visible="yes" active="yes"/>
<layer number="249" name="Edge" color="7" fill="1" visible="yes" active="yes"/>
<layer number="250" name="Descript" color="7" fill="1" visible="no" active="no"/>
<layer number="251" name="SMDround" color="7" fill="1" visible="no" active="no"/>
<layer number="254" name="cooling" color="7" fill="1" visible="yes" active="yes"/>
</layers>
<library>
<packages>
<package name="SO08">
<description>&lt;b&gt;Small Outline Package 8&lt;/b&gt;&lt;br&gt;
NS Package M08A</description>
<wire x1="2.4" y1="1.9" x2="2.4" y2="-1.4" width="0.2032" layer="51"/>
<wire x1="2.4" y1="-1.4" x2="2.4" y2="-1.9" width="0.2032" layer="51"/>
<wire x1="2.4" y1="-1.9" x2="-2.4" y2="-1.9" width="0.2032" layer="51"/>
<wire x1="-2.4" y1="-1.9" x2="-2.4" y2="-1.4" width="0.2032" layer="51"/>
<wire x1="-2.4" y1="-1.4" x2="-2.4" y2="1.9" width="0.2032" layer="51"/>
<wire x1="-2.4" y1="1.9" x2="2.4" y2="1.9" width="0.2032" layer="51"/>
<wire x1="2.4" y1="-1.4" x2="-2.4" y2="-1.4" width="0.2032" layer="51"/>
<smd name="2" x="-0.635" y="-2.6" dx="0.6" dy="2.2" layer="1"/>
<smd name="7" x="-0.635" y="2.6" dx="0.6" dy="2.2" layer="1"/>
<smd name="1" x="-1.905" y="-2.6" dx="0.6" dy="2.2" layer="1"/>
<smd name="3" x="0.635" y="-2.6" dx="0.6" dy="2.2" layer="1"/>
<smd name="4" x="1.905" y="-2.6" dx="0.6" dy="2.2" layer="1"/>
<smd name="8" x="-1.905" y="2.6" dx="0.6" dy="2.2" layer="1"/>
<smd name="6" x="0.635" y="2.6" dx="0.6" dy="2.2" layer="1"/>
<smd name="5" x="1.905" y="2.6" dx="0.6" dy="2.2" layer="1"/>
<text x="-2.667" y="-1.905" size="1.27" layer="25" rot="R90">&gt;NAME</text>
<text x="3.937" y="-1.905" size="1.27" layer="27" rot="R90">&gt;VALUE</text>
<rectangle x1="-2.15" y1="-3.1" x2="-1.66" y2="-2" layer="51"/>
<rectangle x1="-0.88" y1="-3.1" x2="-0.39" y2="-2" layer="51"/>
<rectangle x1="0.39" y1="-3.1" x2="0.88" y2="-2" layer="51"/>
<rectangle x1="1.66" y1="-3.1" x2="2.15" y2="-2" layer="51"/>
<rectangle x1="1.66" y1="2" x2="2.15" y2="3.1" layer="51"/>
<rectangle x1="0.39" y1="2" x2="0.88" y2="3.1" layer="51"/>
<rectangle x1="-0.88" y1="2" x2="-0.39" y2="3.1" layer="51"/>
<rectangle x1="-2.15" y1="2" x2="-1.66" y2="3.1" layer="51"/>
</package>
</packages>
<symbols>
<symbol name="N-MOSFET">
<wire x1="0.762" y1="0.762" x2="0.762" y2="0" width="0.254" layer="94"/>
<wire x1="0.762" y1="0" x2="0.762" y2="-0.762" width="0.254" layer="94"/>
<wire x1="0.762" y1="3.175" x2="0.762" y2="2.54" width="0.254" layer="94"/>
<wire x1="0.762" y1="2.54" x2="0.762" y2="1.905" width="0.254" layer="94"/>
<wire x1="0.762" y1="0" x2="2.54" y2="0" width="0.1524" layer="94"/>
<wire x1="2.54" y1="0" x2="2.54" y2="-2.54" width="0.1524" layer="94"/>
<wire x1="0.762" y1="-1.905" x2="0.762" y2="-2.54" width="0.254" layer="94"/>
<wire x1="0.762" y1="-2.54" x2="0.762" y2="-3.175" width="0.254" layer="94"/>
<wire x1="0" y1="2.54" x2="0" y2="-2.54" width="0.254" layer="94"/>
<wire x1="2.54" y1="-2.54" x2="0.762" y2="-2.54" width="0.1524" layer="94"/>
<wire x1="3.81" y1="2.54" x2="3.81" y2="0.508" width="0.1524" layer="94"/>
<wire x1="3.81" y1="0.508" x2="3.81" y2="-2.54" width="0.1524" layer="94"/>
<wire x1="2.54" y1="-2.54" x2="3.81" y2="-2.54" width="0.1524" layer="94"/>
<wire x1="0.762" y1="2.54" x2="3.81" y2="2.54" width="0.1524" layer="94"/>
<wire x1="4.572" y1="0.762" x2="4.318" y2="0.508" width="0.1524" layer="94"/>
<wire x1="4.318" y1="0.508" x2="3.81" y2="0.508" width="0.1524" layer="94"/>
<wire x1="3.81" y1="0.508" x2="3.302" y2="0.508" width="0.1524" layer="94"/>
<wire x1="3.302" y1="0.508" x2="3.048" y2="0.254" width="0.1524" layer="94"/>
<circle x="2.54" y="-2.54" radius="0.3592" width="0" layer="94"/>
<circle x="2.54" y="2.54" radius="0.3592" width="0" layer="94"/>
<text x="-11.43" y="0" size="1.778" layer="96">&gt;VALUE</text>
<text x="-11.43" y="2.54" size="1.778" layer="95">&gt;NAME</text>
<pin name="S" x="2.54" y="-5.08" visible="off" length="short" direction="pas" rot="R90"/>
<pin name="G" x="-2.54" y="-2.54" visible="off" length="short" direction="pas"/>
<pin name="D" x="2.54" y="5.08" visible="off" length="short" direction="pas" rot="R270"/>
<polygon width="0.1524" layer="94">
<vertex x="3.81" y="0.508"/>
<vertex x="3.302" y="-0.254"/>
<vertex x="4.318" y="-0.254"/>
</polygon>
<polygon width="0.1524" layer="94">
<vertex x="1.016" y="0"/>
<vertex x="2.032" y="0.762"/>
<vertex x="2.032" y="-0.762"/>
</polygon>
</symbol>
<symbol name="P-MOSFET">
<wire x1="0.762" y1="-0.762" x2="0.762" y2="0" width="0.254" layer="94"/>
<wire x1="0.762" y1="0" x2="0.762" y2="0.762" width="0.254" layer="94"/>
<wire x1="0.762" y1="-3.175" x2="0.762" y2="-2.54" width="0.254" layer="94"/>
<wire x1="0.762" y1="-2.54" x2="0.762" y2="-1.905" width="0.254" layer="94"/>
<wire x1="0.762" y1="0" x2="2.54" y2="0" width="0.1524" layer="94"/>
<wire x1="2.54" y1="0" x2="2.54" y2="2.54" width="0.1524" layer="94"/>
<wire x1="0.762" y1="1.905" x2="0.762" y2="2.54" width="0.254" layer="94"/>
<wire x1="0.762" y1="2.54" x2="0.762" y2="3.175" width="0.254" layer="94"/>
<wire x1="0" y1="-2.54" x2="0" y2="2.54" width="0.254" layer="94"/>
<wire x1="2.54" y1="2.54" x2="0.762" y2="2.54" width="0.1524" layer="94"/>
<wire x1="3.81" y1="-2.54" x2="3.81" y2="0.508" width="0.1524" layer="94"/>
<wire x1="3.81" y1="0.508" x2="3.81" y2="2.54" width="0.1524" layer="94"/>
<wire x1="2.54" y1="2.54" x2="3.81" y2="2.54" width="0.1524" layer="94"/>
<wire x1="0.762" y1="-2.54" x2="3.81" y2="-2.54" width="0.1524" layer="94"/>
<wire x1="3.048" y1="0.762" x2="3.302" y2="0.508" width="0.1524" layer="94"/>
<wire x1="3.302" y1="0.508" x2="3.81" y2="0.508" width="0.1524" layer="94"/>
<wire x1="3.81" y1="0.508" x2="4.318" y2="0.508" width="0.1524" layer="94"/>
<wire x1="4.318" y1="0.508" x2="4.572" y2="0.254" width="0.1524" layer="94"/>
<circle x="2.54" y="2.54" radius="0.3592" width="0" layer="94"/>
<circle x="2.54" y="-2.54" radius="0.3592" width="0" layer="94"/>
<text x="-11.43" y="-3.81" size="1.778" layer="96">&gt;VALUE</text>
<text x="-11.43" y="-1.27" size="1.778" layer="95">&gt;NAME</text>
<pin name="S" x="2.54" y="5.08" visible="off" length="short" direction="pas" rot="R270"/>
<pin name="G" x="-2.54" y="2.54" visible="off" length="short" direction="pas"/>
<pin name="D" x="2.54" y="-5.08" visible="off" length="short" direction="pas" rot="R90"/>
<polygon width="0.1524" layer="94">
<vertex x="3.81" y="0.508"/>
<vertex x="4.318" y="-0.254"/>
<vertex x="3.302" y="-0.254"/>
</polygon>
<polygon width="0.1524" layer="94">
<vertex x="2.54" y="0"/>
<vertex x="1.524" y="0.762"/>
<vertex x="1.524" y="-0.762"/>
</polygon>
</symbol>
</symbols>
<devicesets>
<deviceset name="IRL6342PBF" prefix="Q" uservalue="yes">
<description>&lt;b&gt;HEXFET Power MOSFET&lt;/b&gt;
30V/9.9A
&lt;p&gt;Source: http://www.irf.com/product-info/datasheets/data/irl6342pbf.pdf&lt;/p&gt;</description>
<gates>
<gate name="G$1" symbol="N-MOSFET" x="0" y="0"/>
</gates>
<devices>
<device name="" package="SO08">
<connects>
<connect gate="G$1" pin="D" pad="5 6 7 8"/>
<connect gate="G$1" pin="G" pad="4"/>
<connect gate="G$1" pin="S" pad="1 2 3"/>
</connects>
<technologies>
<technology name=""/>
</technologies>
</device>
</devices>
</deviceset>
</devicesets>
</library>
</drawing>
</eagle>
