<?xml version="1.0" encoding="utf-8"?>
<!DOCTYPE eagle SYSTEM "eagle.dtd">
<eagle version="6.3">
<drawing>
<settings>
<setting alwaysvectorfont="no"/>
<setting verticaltext="up"/>
</settings>
<grid distance="0.1" unitdist="inch" unit="mil" style="lines" multiple="1" display="yes" altdistance="0.01" altunitdist="inch" altunit="inch"/>
<layers>
<layer number="1" name="Top" color="4" fill="1" visible="yes" active="yes"/>
<layer number="16" name="Bottom" color="1" fill="1" visible="yes" active="yes"/>
<layer number="17" name="Pads" color="2" fill="1" visible="yes" active="yes"/>
<layer number="18" name="Vias" color="2" fill="1" visible="yes" active="yes"/>
<layer number="19" name="Unrouted" color="6" fill="1" visible="yes" active="yes"/>
<layer number="20" name="Dimension" color="15" fill="1" visible="yes" active="yes"/>
<layer number="21" name="tPlace" color="7" fill="1" visible="yes" active="yes"/>
<layer number="22" name="bPlace" color="7" fill="1" visible="yes" active="yes"/>
<layer number="23" name="tOrigins" color="15" fill="1" visible="yes" active="yes"/>
<layer number="24" name="bOrigins" color="15" fill="1" visible="yes" active="yes"/>
<layer number="25" name="tNames" color="7" fill="1" visible="yes" active="yes"/>
<layer number="26" name="bNames" color="7" fill="1" visible="yes" active="yes"/>
<layer number="27" name="tValues" color="7" fill="1" visible="yes" active="yes"/>
<layer number="28" name="bValues" color="7" fill="1" visible="yes" active="yes"/>
<layer number="29" name="tStop" color="7" fill="3" visible="no" active="yes"/>
<layer number="30" name="bStop" color="7" fill="6" visible="no" active="yes"/>
<layer number="31" name="tCream" color="7" fill="4" visible="no" active="yes"/>
<layer number="32" name="bCream" color="7" fill="5" visible="no" active="yes"/>
<layer number="33" name="tFinish" color="6" fill="3" visible="no" active="yes"/>
<layer number="34" name="bFinish" color="6" fill="6" visible="no" active="yes"/>
<layer number="35" name="tGlue" color="7" fill="4" visible="no" active="yes"/>
<layer number="36" name="bGlue" color="7" fill="5" visible="no" active="yes"/>
<layer number="37" name="tTest" color="7" fill="1" visible="no" active="yes"/>
<layer number="38" name="bTest" color="7" fill="1" visible="no" active="yes"/>
<layer number="39" name="tKeepout" color="4" fill="11" visible="yes" active="yes"/>
<layer number="40" name="bKeepout" color="1" fill="11" visible="yes" active="yes"/>
<layer number="41" name="tRestrict" color="4" fill="10" visible="yes" active="yes"/>
<layer number="42" name="bRestrict" color="1" fill="10" visible="yes" active="yes"/>
<layer number="43" name="vRestrict" color="2" fill="10" visible="yes" active="yes"/>
<layer number="44" name="Drills" color="7" fill="1" visible="no" active="yes"/>
<layer number="45" name="Holes" color="7" fill="1" visible="no" active="yes"/>
<layer number="46" name="Milling" color="3" fill="1" visible="no" active="yes"/>
<layer number="47" name="Measures" color="7" fill="1" visible="no" active="yes"/>
<layer number="48" name="Document" color="7" fill="1" visible="yes" active="yes"/>
<layer number="49" name="Reference" color="7" fill="1" visible="yes" active="yes"/>
<layer number="51" name="tDocu" color="7" fill="1" visible="yes" active="yes"/>
<layer number="52" name="bDocu" color="7" fill="1" visible="yes" active="yes"/>
<layer number="91" name="Nets" color="2" fill="1" visible="yes" active="yes"/>
<layer number="92" name="Busses" color="1" fill="1" visible="yes" active="yes"/>
<layer number="93" name="Pins" color="2" fill="1" visible="yes" active="yes"/>
<layer number="94" name="Symbols" color="4" fill="1" visible="yes" active="yes"/>
<layer number="95" name="Names" color="7" fill="1" visible="yes" active="yes"/>
<layer number="96" name="Values" color="7" fill="1" visible="yes" active="yes"/>
<layer number="97" name="Info" color="7" fill="1" visible="yes" active="yes"/>
<layer number="98" name="Guide" color="6" fill="1" visible="yes" active="yes"/>
</layers>
<library>
<packages>
<package name="SOT230P696X180-4N">
<smd name="1" x="-3.2004" y="2.3114" dx="1.6002" dy="0.8382" layer="1"/>
<smd name="2" x="-3.2004" y="0" dx="1.6002" dy="0.8382" layer="1"/>
<smd name="3" x="-3.2004" y="-2.3114" dx="1.6002" dy="0.8382" layer="1"/>
<smd name="4" x="3.2004" y="0" dx="1.6002" dy="3.0988" layer="1"/>
<wire x1="-1.778" y1="1.905" x2="-1.778" y2="2.6924" width="0.1524" layer="51"/>
<wire x1="-1.778" y1="2.6924" x2="-3.6576" y2="2.6924" width="0.1524" layer="51"/>
<wire x1="-3.6576" y1="2.6924" x2="-3.6576" y2="1.905" width="0.1524" layer="51"/>
<wire x1="-3.6576" y1="1.905" x2="-1.778" y2="1.905" width="0.1524" layer="51"/>
<wire x1="-1.778" y1="-0.4064" x2="-1.778" y2="0.4064" width="0.1524" layer="51"/>
<wire x1="-1.778" y1="0.4064" x2="-3.6576" y2="0.4064" width="0.1524" layer="51"/>
<wire x1="-3.6576" y1="0.4064" x2="-3.6576" y2="-0.4064" width="0.1524" layer="51"/>
<wire x1="-3.6576" y1="-0.4064" x2="-1.778" y2="-0.4064" width="0.1524" layer="51"/>
<wire x1="-1.778" y1="-2.6924" x2="-1.778" y2="-1.905" width="0.1524" layer="51"/>
<wire x1="-1.778" y1="-1.905" x2="-3.6576" y2="-1.905" width="0.1524" layer="51"/>
<wire x1="-3.6576" y1="-1.905" x2="-3.6576" y2="-2.6924" width="0.1524" layer="51"/>
<wire x1="-3.6576" y1="-2.6924" x2="-1.778" y2="-2.6924" width="0.1524" layer="51"/>
<wire x1="1.778" y1="1.5494" x2="1.778" y2="-1.5494" width="0.1524" layer="51"/>
<wire x1="1.778" y1="-1.5494" x2="3.6576" y2="-1.5494" width="0.1524" layer="51"/>
<wire x1="3.6576" y1="-1.5494" x2="3.6576" y2="1.5494" width="0.1524" layer="51"/>
<wire x1="3.6576" y1="1.5494" x2="1.778" y2="1.5494" width="0.1524" layer="51"/>
<wire x1="-1.778" y1="-3.2512" x2="1.778" y2="-3.2512" width="0.1524" layer="51"/>
<wire x1="1.778" y1="-3.2512" x2="1.778" y2="3.2512" width="0.1524" layer="51"/>
<wire x1="1.778" y1="3.2512" x2="-1.778" y2="3.2512" width="0.1524" layer="51"/>
<wire x1="-1.778" y1="3.2512" x2="-1.778" y2="-3.2512" width="0.1524" layer="51"/>
<text x="-4.0132" y="2.3368" size="1.27" layer="51" ratio="6" rot="SR0">*</text>
<wire x1="-1.778" y1="-3.2512" x2="1.778" y2="-3.2512" width="0.1524" layer="21"/>
<wire x1="1.778" y1="-3.2512" x2="1.778" y2="3.2512" width="0.1524" layer="21"/>
<wire x1="1.778" y1="3.2512" x2="-1.778" y2="3.2512" width="0.1524" layer="21"/>
<wire x1="-1.778" y1="3.2512" x2="-1.778" y2="-3.2512" width="0.1524" layer="21"/>
<text x="-4.0132" y="2.3368" size="1.27" layer="21" ratio="6" rot="SR0">*</text>
<text x="-4.7244" y="3.5814" size="2.0828" layer="25" ratio="10" rot="SR0">&gt;NAME</text>
<text x="-5.5626" y="-5.7658" size="2.0828" layer="27" ratio="10" rot="SR0">&gt;VALUE</text>
</package>
<package name="SOIC127P600X175-8N">
<smd name="1" x="-2.4638" y="1.905" dx="1.9812" dy="0.5334" layer="1"/>
<smd name="2" x="-2.4638" y="0.635" dx="1.9812" dy="0.5334" layer="1"/>
<smd name="3" x="-2.4638" y="-0.635" dx="1.9812" dy="0.5334" layer="1"/>
<smd name="4" x="-2.4638" y="-1.905" dx="1.9812" dy="0.5334" layer="1"/>
<smd name="5" x="2.4638" y="-1.905" dx="1.9812" dy="0.5334" layer="1"/>
<smd name="6" x="2.4638" y="-0.635" dx="1.9812" dy="0.5334" layer="1"/>
<smd name="7" x="2.4638" y="0.635" dx="1.9812" dy="0.5334" layer="1"/>
<smd name="8" x="2.4638" y="1.905" dx="1.9812" dy="0.5334" layer="1"/>
<wire x1="-2.0066" y1="1.651" x2="-2.0066" y2="2.159" width="0" layer="51"/>
<wire x1="-2.0066" y1="2.159" x2="-3.0988" y2="2.159" width="0" layer="51"/>
<wire x1="-3.0988" y1="2.159" x2="-3.0988" y2="1.651" width="0" layer="51"/>
<wire x1="-3.0988" y1="1.651" x2="-2.0066" y2="1.651" width="0" layer="51"/>
<wire x1="-2.0066" y1="0.381" x2="-2.0066" y2="0.889" width="0" layer="51"/>
<wire x1="-2.0066" y1="0.889" x2="-3.0988" y2="0.889" width="0" layer="51"/>
<wire x1="-3.0988" y1="0.889" x2="-3.0988" y2="0.381" width="0" layer="51"/>
<wire x1="-3.0988" y1="0.381" x2="-2.0066" y2="0.381" width="0" layer="51"/>
<wire x1="-2.0066" y1="-0.889" x2="-2.0066" y2="-0.381" width="0" layer="51"/>
<wire x1="-2.0066" y1="-0.381" x2="-3.0988" y2="-0.381" width="0" layer="51"/>
<wire x1="-3.0988" y1="-0.381" x2="-3.0988" y2="-0.889" width="0" layer="51"/>
<wire x1="-3.0988" y1="-0.889" x2="-2.0066" y2="-0.889" width="0" layer="51"/>
<wire x1="-2.0066" y1="-2.159" x2="-2.0066" y2="-1.651" width="0" layer="51"/>
<wire x1="-2.0066" y1="-1.651" x2="-3.0988" y2="-1.651" width="0" layer="51"/>
<wire x1="-3.0988" y1="-1.651" x2="-3.0988" y2="-2.159" width="0" layer="51"/>
<wire x1="-3.0988" y1="-2.159" x2="-2.0066" y2="-2.159" width="0" layer="51"/>
<wire x1="2.0066" y1="-1.651" x2="2.0066" y2="-2.159" width="0" layer="51"/>
<wire x1="2.0066" y1="-2.159" x2="3.0988" y2="-2.159" width="0" layer="51"/>
<wire x1="3.0988" y1="-2.159" x2="3.0988" y2="-1.651" width="0" layer="51"/>
<wire x1="3.0988" y1="-1.651" x2="2.0066" y2="-1.651" width="0" layer="51"/>
<wire x1="2.0066" y1="-0.381" x2="2.0066" y2="-0.889" width="0" layer="51"/>
<wire x1="2.0066" y1="-0.889" x2="3.0988" y2="-0.889" width="0" layer="51"/>
<wire x1="3.0988" y1="-0.889" x2="3.0988" y2="-0.381" width="0" layer="51"/>
<wire x1="3.0988" y1="-0.381" x2="2.0066" y2="-0.381" width="0" layer="51"/>
<wire x1="2.0066" y1="0.889" x2="2.0066" y2="0.381" width="0" layer="51"/>
<wire x1="2.0066" y1="0.381" x2="3.0988" y2="0.381" width="0" layer="51"/>
<wire x1="3.0988" y1="0.381" x2="3.0988" y2="0.889" width="0" layer="51"/>
<wire x1="3.0988" y1="0.889" x2="2.0066" y2="0.889" width="0" layer="51"/>
<wire x1="2.0066" y1="2.159" x2="2.0066" y2="1.651" width="0" layer="51"/>
<wire x1="2.0066" y1="1.651" x2="3.0988" y2="1.651" width="0" layer="51"/>
<wire x1="3.0988" y1="1.651" x2="3.0988" y2="2.159" width="0" layer="51"/>
<wire x1="3.0988" y1="2.159" x2="2.0066" y2="2.159" width="0" layer="51"/>
<wire x1="-2.0066" y1="-2.4892" x2="2.0066" y2="-2.4892" width="0" layer="51"/>
<wire x1="2.0066" y1="-2.4892" x2="2.0066" y2="2.4892" width="0" layer="51"/>
<wire x1="2.0066" y1="2.4892" x2="0.3048" y2="2.4892" width="0" layer="51"/>
<wire x1="0.3048" y1="2.4892" x2="-0.3048" y2="2.4892" width="0" layer="51"/>
<wire x1="-0.3048" y1="2.4892" x2="-2.0066" y2="2.4892" width="0" layer="51"/>
<wire x1="-2.0066" y1="2.4892" x2="-2.0066" y2="-2.4892" width="0" layer="51"/>
<wire x1="0.3048" y1="2.4892" x2="-0.3048" y2="2.4892" width="0" layer="51" curve="-180"/>
<text x="-3.302" y="2.3114" size="1.27" layer="51" ratio="6" rot="SR0">*</text>
<wire x1="-1.397" y1="-2.4892" x2="1.397" y2="-2.4892" width="0.1524" layer="21"/>
<wire x1="1.397" y1="2.4892" x2="0.3048" y2="2.4892" width="0.1524" layer="21"/>
<wire x1="0.3048" y1="2.4892" x2="-0.3048" y2="2.4892" width="0.1524" layer="21"/>
<wire x1="-0.3048" y1="2.4892" x2="-1.397" y2="2.4892" width="0.1524" layer="21"/>
<wire x1="0.3048" y1="2.4892" x2="-0.3048" y2="2.4892" width="0.1524" layer="21" curve="-180"/>
<text x="-3.302" y="2.3114" size="1.27" layer="21" ratio="6" rot="SR0">*</text>
<text x="-3.4544" y="4.445" size="2.0828" layer="25" ratio="10" rot="SR0">&gt;NAME</text>
<text x="-3.4544" y="-5.715" size="2.0828" layer="27" ratio="10" rot="SR0">&gt;VALUE</text>
</package>
<package name="SOIC127P600X170-9N">
<smd name="1" x="-2.4638" y="1.905" dx="1.9812" dy="0.5588" layer="1"/>
<smd name="2" x="-2.4638" y="0.635" dx="1.9812" dy="0.5588" layer="1"/>
<smd name="3" x="-2.4638" y="-0.635" dx="1.9812" dy="0.5588" layer="1"/>
<smd name="4" x="-2.4638" y="-1.905" dx="1.9812" dy="0.5588" layer="1"/>
<smd name="5" x="2.4638" y="-1.905" dx="1.9812" dy="0.5588" layer="1"/>
<smd name="6" x="2.4638" y="-0.635" dx="1.9812" dy="0.5588" layer="1"/>
<smd name="7" x="2.4638" y="0.635" dx="1.9812" dy="0.5588" layer="1"/>
<smd name="8" x="2.4638" y="1.905" dx="1.9812" dy="0.5588" layer="1"/>
<smd name="9" x="0" y="0" dx="2.0066" dy="2.9972" layer="1"/>
<wire x1="-2.0066" y1="1.651" x2="-2.0066" y2="2.159" width="0" layer="51"/>
<wire x1="-2.0066" y1="2.159" x2="-3.0988" y2="2.159" width="0" layer="51"/>
<wire x1="-3.0988" y1="2.159" x2="-3.0988" y2="1.651" width="0" layer="51"/>
<wire x1="-3.0988" y1="1.651" x2="-2.0066" y2="1.651" width="0" layer="51"/>
<wire x1="-2.0066" y1="0.381" x2="-2.0066" y2="0.889" width="0" layer="51"/>
<wire x1="-2.0066" y1="0.889" x2="-3.0988" y2="0.889" width="0" layer="51"/>
<wire x1="-3.0988" y1="0.889" x2="-3.0988" y2="0.381" width="0" layer="51"/>
<wire x1="-3.0988" y1="0.381" x2="-2.0066" y2="0.381" width="0" layer="51"/>
<wire x1="-2.0066" y1="-0.889" x2="-2.0066" y2="-0.381" width="0" layer="51"/>
<wire x1="-2.0066" y1="-0.381" x2="-3.0988" y2="-0.381" width="0" layer="51"/>
<wire x1="-3.0988" y1="-0.381" x2="-3.0988" y2="-0.889" width="0" layer="51"/>
<wire x1="-3.0988" y1="-0.889" x2="-2.0066" y2="-0.889" width="0" layer="51"/>
<wire x1="-2.0066" y1="-2.159" x2="-2.0066" y2="-1.651" width="0" layer="51"/>
<wire x1="-2.0066" y1="-1.651" x2="-3.0988" y2="-1.651" width="0" layer="51"/>
<wire x1="-3.0988" y1="-1.651" x2="-3.0988" y2="-2.159" width="0" layer="51"/>
<wire x1="-3.0988" y1="-2.159" x2="-2.0066" y2="-2.159" width="0" layer="51"/>
<wire x1="2.0066" y1="-1.651" x2="2.0066" y2="-2.159" width="0" layer="51"/>
<wire x1="2.0066" y1="-2.159" x2="3.0988" y2="-2.159" width="0" layer="51"/>
<wire x1="3.0988" y1="-2.159" x2="3.0988" y2="-1.651" width="0" layer="51"/>
<wire x1="3.0988" y1="-1.651" x2="2.0066" y2="-1.651" width="0" layer="51"/>
<wire x1="2.0066" y1="-0.381" x2="2.0066" y2="-0.889" width="0" layer="51"/>
<wire x1="2.0066" y1="-0.889" x2="3.0988" y2="-0.889" width="0" layer="51"/>
<wire x1="3.0988" y1="-0.889" x2="3.0988" y2="-0.381" width="0" layer="51"/>
<wire x1="3.0988" y1="-0.381" x2="2.0066" y2="-0.381" width="0" layer="51"/>
<wire x1="2.0066" y1="0.889" x2="2.0066" y2="0.381" width="0" layer="51"/>
<wire x1="2.0066" y1="0.381" x2="3.0988" y2="0.381" width="0" layer="51"/>
<wire x1="3.0988" y1="0.381" x2="3.0988" y2="0.889" width="0" layer="51"/>
<wire x1="3.0988" y1="0.889" x2="2.0066" y2="0.889" width="0" layer="51"/>
<wire x1="2.0066" y1="2.159" x2="2.0066" y2="1.651" width="0" layer="51"/>
<wire x1="2.0066" y1="1.651" x2="3.0988" y2="1.651" width="0" layer="51"/>
<wire x1="3.0988" y1="1.651" x2="3.0988" y2="2.159" width="0" layer="51"/>
<wire x1="3.0988" y1="2.159" x2="2.0066" y2="2.159" width="0" layer="51"/>
<wire x1="-2.0066" y1="-2.4892" x2="2.0066" y2="-2.4892" width="0" layer="51"/>
<wire x1="2.0066" y1="-2.4892" x2="2.0066" y2="2.4892" width="0" layer="51"/>
<wire x1="2.0066" y1="2.4892" x2="0.3048" y2="2.4892" width="0" layer="51"/>
<wire x1="0.3048" y1="2.4892" x2="-0.3048" y2="2.4892" width="0" layer="51"/>
<wire x1="-0.3048" y1="2.4892" x2="-2.0066" y2="2.4892" width="0" layer="51"/>
<wire x1="-2.0066" y1="2.4892" x2="-2.0066" y2="-2.4892" width="0" layer="51"/>
<wire x1="0.3048" y1="2.4892" x2="-0.3048" y2="2.4892" width="0" layer="51" curve="-180"/>
<text x="-3.302" y="2.3368" size="1.27" layer="51" ratio="6" rot="SR0">*</text>
<wire x1="-1.3716" y1="-2.4892" x2="1.3716" y2="-2.4892" width="0.1524" layer="21"/>
<wire x1="1.3716" y1="2.4892" x2="0.3048" y2="2.4892" width="0.1524" layer="21"/>
<wire x1="0.3048" y1="2.4892" x2="-0.3048" y2="2.4892" width="0.1524" layer="21"/>
<wire x1="-0.3048" y1="2.4892" x2="-1.3716" y2="2.4892" width="0.1524" layer="21"/>
<wire x1="0.3048" y1="2.4892" x2="-0.3048" y2="2.4892" width="0.1524" layer="21" curve="-180"/>
<text x="-3.302" y="2.3368" size="1.27" layer="21" ratio="6" rot="SR0">*</text>
<text x="-3.4544" y="4.445" size="2.0828" layer="25" ratio="10" rot="SR0">&gt;NAME</text>
<text x="-3.4544" y="-5.715" size="2.0828" layer="27" ratio="10" rot="SR0">&gt;VALUE</text>
</package>
</packages>
<symbols>
<symbol name="LM3940IMP-3.3">
<pin name="IN" x="-17.78" y="0" length="middle" direction="pwr"/>
<pin name="GND_2" x="-17.78" y="-5.08" length="middle" direction="pas"/>
<pin name="GND" x="-17.78" y="-7.62" length="middle" direction="pas"/>
<pin name="OUT" x="17.78" y="0" length="middle" direction="out" rot="R180"/>
<wire x1="-12.7" y1="5.08" x2="-12.7" y2="-12.7" width="0.1524" layer="94"/>
<wire x1="-12.7" y1="-12.7" x2="12.7" y2="-12.7" width="0.1524" layer="94"/>
<wire x1="12.7" y1="-12.7" x2="12.7" y2="5.08" width="0.1524" layer="94"/>
<wire x1="12.7" y1="5.08" x2="-12.7" y2="5.08" width="0.1524" layer="94"/>
<text x="-4.3942" y="7.62" size="2.0828" layer="95" ratio="10" rot="SR0">&gt;NAME</text>
<text x="-2.7432" y="-16.4592" size="2.0828" layer="96" ratio="10" rot="SR0">&gt;VALUE</text>
</symbol>
<symbol name="DS1338Z-33+">
<pin name="VCC" x="-17.78" y="5.08" length="middle" direction="pwr"/>
<pin name="VBAT" x="17.78" y="-10.16" length="middle" direction="pwr" rot="R180"/>
<pin name="SCL" x="17.78" y="-5.08" length="middle" direction="in" rot="R180"/>
<pin name="X1" x="-17.78" y="0" length="middle" direction="in"/>
<pin name="GND" x="-17.78" y="-10.16" length="middle" direction="pas"/>
<pin name="SQW/OUT" x="17.78" y="5.08" length="middle" direction="out" rot="R180"/>
<pin name="SDA" x="17.78" y="0" length="middle" rot="R180"/>
<pin name="X2" x="-17.78" y="-5.08" length="middle" direction="out"/>
<wire x1="-12.7" y1="10.16" x2="-12.7" y2="-15.24" width="0.4064" layer="94"/>
<wire x1="-12.7" y1="-15.24" x2="12.7" y2="-15.24" width="0.4064" layer="94"/>
<wire x1="12.7" y1="-15.24" x2="12.7" y2="10.16" width="0.4064" layer="94"/>
<wire x1="12.7" y1="10.16" x2="-12.7" y2="10.16" width="0.4064" layer="94"/>
<text x="-4.7752" y="10.8204" size="2.0828" layer="95" ratio="10" rot="SR0">&gt;NAME</text>
<text x="-6.4262" y="-20.2438" size="2.0828" layer="96" ratio="10" rot="SR0">&gt;VALUE</text>
</symbol>
<symbol name="TPS5450DDA">
<pin name="VIN" x="-17.78" y="10.16" length="middle" direction="pwr"/>
<pin name="VSENSE" x="-17.78" y="2.54" length="middle" direction="in"/>
<pin name="BOOT" x="-17.78" y="0" length="middle" direction="in"/>
<pin name="ENA" x="-17.78" y="-2.54" length="middle" direction="in"/>
<pin name="NC_2" x="-17.78" y="-7.62" length="middle" direction="nc"/>
<pin name="NC" x="-17.78" y="-10.16" length="middle" direction="nc"/>
<pin name="POWERPAD" x="-17.78" y="-15.24" length="middle" direction="pas"/>
<pin name="GND" x="-17.78" y="-17.78" length="middle" direction="pas"/>
<pin name="PH" x="17.78" y="10.16" length="middle" direction="out" rot="R180"/>
<wire x1="-12.7" y1="15.24" x2="-12.7" y2="-22.86" width="0.4064" layer="94"/>
<wire x1="-12.7" y1="-22.86" x2="12.7" y2="-22.86" width="0.4064" layer="94"/>
<wire x1="12.7" y1="-22.86" x2="12.7" y2="15.24" width="0.4064" layer="94"/>
<wire x1="12.7" y1="15.24" x2="-12.7" y2="15.24" width="0.4064" layer="94"/>
<text x="-5.5626" y="17.8562" size="2.0828" layer="95" ratio="10" rot="SR0">&gt;NAME</text>
<text x="-3.9624" y="-27.5336" size="2.0828" layer="96" ratio="10" rot="SR0">&gt;VALUE</text>
</symbol>
</symbols>
<devicesets>
<deviceset name="LM3940IMP-3.3" prefix="U">
<description>Low Dropout Regulator</description>
<gates>
<gate name="A" symbol="LM3940IMP-3.3" x="0" y="0"/>
</gates>
<devices>
<device name="" package="SOT230P696X180-4N">
<connects>
<connect gate="A" pin="GND" pad="4"/>
<connect gate="A" pin="GND_2" pad="2"/>
<connect gate="A" pin="IN" pad="1"/>
<connect gate="A" pin="OUT" pad="3"/>
</connects>
<technologies>
<technology name="">
<attribute name="MANUFACTURER_PART_NUMBER" value="LM3940IMP-33" constant="no"/>
<attribute name="OC_FARNELL" value="9779280" constant="no"/>
<attribute name="OC_NEWARK" value="41K5122" constant="no"/>
<attribute name="PACKAGE" value="SOT-223-4" constant="no"/>
<attribute name="SUPPLIER" value="National Semiconductors" constant="no"/>
</technology>
</technologies>
</device>
</devices>
</deviceset>
<deviceset name="DS1338Z-33+" prefix="U">
<description>I2C RTC with 56-Byte NV RAM</description>
<gates>
<gate name="A" symbol="DS1338Z-33+" x="0" y="0"/>
</gates>
<devices>
<device name="" package="SOIC127P600X175-8N">
<connects>
<connect gate="A" pin="GND" pad="4"/>
<connect gate="A" pin="SCL" pad="6"/>
<connect gate="A" pin="SDA" pad="5"/>
<connect gate="A" pin="SQW/OUT" pad="8"/>
<connect gate="A" pin="VBAT" pad="3"/>
<connect gate="A" pin="VCC" pad="7"/>
<connect gate="A" pin="X1" pad="1"/>
<connect gate="A" pin="X2" pad="2"/>
</connects>
<technologies>
<technology name="">
<attribute name="MPN" value="DS1338Z-33+" constant="no"/>
<attribute name="OC_FARNELL" value="1379714" constant="no"/>
<attribute name="OC_NEWARK" value="27K7425" constant="no"/>
<attribute name="PACKAGE" value="SOIC-8" constant="no"/>
<attribute name="SUPPLIER" value="Maxim" constant="no"/>
</technology>
</technologies>
</device>
</devices>
</deviceset>
<deviceset name="TPS5450DDA" prefix="U">
<description>5-A, WIDE INPUT RANGE, STEP-DOWN SWIFT CONVERTER</description>
<gates>
<gate name="A" symbol="TPS5450DDA" x="0" y="0"/>
</gates>
<devices>
<device name="" package="SOIC127P600X170-9N">
<connects>
<connect gate="A" pin="BOOT" pad="1"/>
<connect gate="A" pin="ENA" pad="5"/>
<connect gate="A" pin="GND" pad="6"/>
<connect gate="A" pin="NC" pad="2"/>
<connect gate="A" pin="NC_2" pad="3"/>
<connect gate="A" pin="PH" pad="8"/>
<connect gate="A" pin="POWERPAD" pad="9"/>
<connect gate="A" pin="VIN" pad="7"/>
<connect gate="A" pin="VSENSE" pad="4"/>
</connects>
<technologies>
<technology name="">
<attribute name="MPN" value="TPS5450DDA" constant="no"/>
<attribute name="OC_FARNELL" value="1564960" constant="no"/>
<attribute name="OC_NEWARK" value="37M0059" constant="no"/>
<attribute name="PACKAGE" value="SOIC-8" constant="no"/>
<attribute name="SUPPLIER" value="TEXAS INSTRUMENTS" constant="no"/>
</technology>
</technologies>
</device>
</devices>
</deviceset>
</devicesets>
</library>
</drawing>
</eagle>
